\relax 
\@writefile{toc}{\contentsline {section}{\numberline {52}Package nMOLDYN.Tests.AVACF}{317}{section.52}}
\newlabel{nMOLDYN:Tests:AVACF}{{52}{317}{Package nMOLDYN.Tests.AVACF\relax }{section.52}{}}
\@writefile{toc}{\contentsline {subsection}{\numberline {52.1}Modules}{317}{subsection.52.1}}
\@setckpt{nMOLDYN.Tests.AVACF-module}{
\setcounter{page}{318}
\setcounter{equation}{0}
\setcounter{enumi}{0}
\setcounter{enumii}{0}
\setcounter{enumiii}{0}
\setcounter{enumiv}{0}
\setcounter{footnote}{0}
\setcounter{mpfootnote}{0}
\setcounter{part}{0}
\setcounter{section}{52}
\setcounter{subsection}{1}
\setcounter{subsubsection}{0}
\setcounter{paragraph}{0}
\setcounter{subparagraph}{0}
\setcounter{figure}{0}
\setcounter{table}{148}
\setcounter{LT@tables}{148}
\setcounter{LT@chunks}{4}
\setcounter{Item}{0}
\setcounter{Hfootnote}{0}
\setcounter{section@level}{2}
}
