\relax 
\gdef \LT@clxiv {\LT@entry 
    {1}{152.92793pt}\LT@entry 
    {1}{258.72162pt}\LT@entry 
    {1}{12.0pt}}
\@writefile{toc}{\contentsline {section}{\numberline {75}Module nMOLDYN.Tests.StabilityTests}{340}{section.75}}
\newlabel{nMOLDYN:Tests:StabilityTests}{{75}{340}{Module nMOLDYN.Tests.StabilityTests\relax }{section.75}{}}
\@writefile{toc}{\contentsline {subsection}{\numberline {75.1}Variables}{340}{subsection.75.1}}
\@writefile{toc}{\contentsline {subsection}{\numberline {75.2}Class AnalysisTest}{340}{subsection.75.2}}
\newlabel{nMOLDYN:Tests:StabilityTests:AnalysisTest}{{75.2}{340}{Class AnalysisTest\relax }{subsection.75.2}{}}
\@writefile{toc}{\contentsline {subsubsection}{\numberline {75.2.1}Methods}{340}{subsubsection.75.2.1}}
\newlabel{nMOLDYN:Tests:StabilityTests:AnalysisTest:runTest}{{75.2.1}{340}{Methods\relax }{subsubsection.75.2.1}{}}
\gdef \LT@clxv {\LT@entry 
    {1}{152.92793pt}\LT@entry 
    {1}{258.72162pt}\LT@entry 
    {1}{12.0pt}}
\@writefile{toc}{\contentsline {subsection}{\numberline {75.3}Class MSDTests}{341}{subsection.75.3}}
\newlabel{nMOLDYN:Tests:StabilityTests:MSDTests}{{75.3}{341}{Class MSDTests\relax }{subsection.75.3}{}}
\@writefile{toc}{\contentsline {subsubsection}{\numberline {75.3.1}Methods}{341}{subsubsection.75.3.1}}
\@writefile{toc}{\contentsline {subsubsection}{\numberline {75.3.2}Class Variables}{341}{subsubsection.75.3.2}}
\gdef \LT@clxvi {\LT@entry 
    {1}{152.92793pt}\LT@entry 
    {1}{258.72162pt}\LT@entry 
    {1}{12.0pt}}
\@writefile{toc}{\contentsline {subsection}{\numberline {75.4}Class VACFTests}{342}{subsection.75.4}}
\newlabel{nMOLDYN:Tests:StabilityTests:VACFTests}{{75.4}{342}{Class VACFTests\relax }{subsection.75.4}{}}
\@writefile{toc}{\contentsline {subsubsection}{\numberline {75.4.1}Methods}{342}{subsubsection.75.4.1}}
\@writefile{toc}{\contentsline {subsubsection}{\numberline {75.4.2}Class Variables}{342}{subsubsection.75.4.2}}
\gdef \LT@clxvii {\LT@entry 
    {1}{152.92793pt}\LT@entry 
    {1}{258.72162pt}\LT@entry 
    {1}{12.0pt}}
\@writefile{toc}{\contentsline {subsection}{\numberline {75.5}Class ARATests}{343}{subsection.75.5}}
\newlabel{nMOLDYN:Tests:StabilityTests:ARATests}{{75.5}{343}{Class ARATests\relax }{subsection.75.5}{}}
\@writefile{toc}{\contentsline {subsubsection}{\numberline {75.5.1}Methods}{343}{subsubsection.75.5.1}}
\@writefile{toc}{\contentsline {subsubsection}{\numberline {75.5.2}Class Variables}{343}{subsubsection.75.5.2}}
\gdef \LT@clxviii {\LT@entry 
    {1}{152.92793pt}\LT@entry 
    {1}{258.72162pt}\LT@entry 
    {1}{12.0pt}}
\@writefile{toc}{\contentsline {subsection}{\numberline {75.6}Class AVACFTests}{344}{subsection.75.6}}
\newlabel{nMOLDYN:Tests:StabilityTests:AVACFTests}{{75.6}{344}{Class AVACFTests\relax }{subsection.75.6}{}}
\@writefile{toc}{\contentsline {subsubsection}{\numberline {75.6.1}Methods}{344}{subsubsection.75.6.1}}
\@writefile{toc}{\contentsline {subsubsection}{\numberline {75.6.2}Class Variables}{344}{subsubsection.75.6.2}}
\gdef \LT@clxix {\LT@entry 
    {1}{152.92793pt}\LT@entry 
    {1}{258.72162pt}\LT@entry 
    {1}{12.0pt}}
\@writefile{toc}{\contentsline {subsection}{\numberline {75.7}Class DOSTests}{345}{subsection.75.7}}
\newlabel{nMOLDYN:Tests:StabilityTests:DOSTests}{{75.7}{345}{Class DOSTests\relax }{subsection.75.7}{}}
\@writefile{toc}{\contentsline {subsubsection}{\numberline {75.7.1}Methods}{345}{subsubsection.75.7.1}}
\@writefile{toc}{\contentsline {subsubsection}{\numberline {75.7.2}Class Variables}{345}{subsubsection.75.7.2}}
\gdef \LT@clxx {\LT@entry 
    {1}{152.92793pt}\LT@entry 
    {1}{258.72162pt}\LT@entry 
    {1}{12.0pt}}
\@writefile{toc}{\contentsline {subsection}{\numberline {75.8}Class DCSFTests}{346}{subsection.75.8}}
\newlabel{nMOLDYN:Tests:StabilityTests:DCSFTests}{{75.8}{346}{Class DCSFTests\relax }{subsection.75.8}{}}
\@writefile{toc}{\contentsline {subsubsection}{\numberline {75.8.1}Methods}{346}{subsubsection.75.8.1}}
\@writefile{toc}{\contentsline {subsubsection}{\numberline {75.8.2}Class Variables}{346}{subsubsection.75.8.2}}
\gdef \LT@clxxi {\LT@entry 
    {1}{152.92793pt}\LT@entry 
    {1}{258.72162pt}\LT@entry 
    {1}{12.0pt}}
\@writefile{toc}{\contentsline {subsection}{\numberline {75.9}Class DISFTests}{347}{subsection.75.9}}
\newlabel{nMOLDYN:Tests:StabilityTests:DISFTests}{{75.9}{347}{Class DISFTests\relax }{subsection.75.9}{}}
\@writefile{toc}{\contentsline {subsubsection}{\numberline {75.9.1}Methods}{347}{subsubsection.75.9.1}}
\@writefile{toc}{\contentsline {subsubsection}{\numberline {75.9.2}Class Variables}{347}{subsubsection.75.9.2}}
\gdef \LT@clxxii {\LT@entry 
    {1}{152.92793pt}\LT@entry 
    {1}{258.72162pt}\LT@entry 
    {1}{12.0pt}}
\@writefile{toc}{\contentsline {subsection}{\numberline {75.10}Class DISFGTests}{348}{subsection.75.10}}
\newlabel{nMOLDYN:Tests:StabilityTests:DISFGTests}{{75.10}{348}{Class DISFGTests\relax }{subsection.75.10}{}}
\@writefile{toc}{\contentsline {subsubsection}{\numberline {75.10.1}Methods}{348}{subsubsection.75.10.1}}
\@writefile{toc}{\contentsline {subsubsection}{\numberline {75.10.2}Class Variables}{348}{subsubsection.75.10.2}}
\gdef \LT@clxxiii {\LT@entry 
    {1}{152.92793pt}\LT@entry 
    {1}{258.72162pt}\LT@entry 
    {1}{12.0pt}}
\@writefile{toc}{\contentsline {subsection}{\numberline {75.11}Class EISFTests}{349}{subsection.75.11}}
\newlabel{nMOLDYN:Tests:StabilityTests:EISFTests}{{75.11}{349}{Class EISFTests\relax }{subsection.75.11}{}}
\@writefile{toc}{\contentsline {subsubsection}{\numberline {75.11.1}Methods}{349}{subsubsection.75.11.1}}
\@writefile{toc}{\contentsline {subsubsection}{\numberline {75.11.2}Class Variables}{349}{subsubsection.75.11.2}}
\gdef \LT@clxxiv {\LT@entry 
    {1}{152.92793pt}\LT@entry 
    {1}{258.72162pt}\LT@entry 
    {1}{12.0pt}}
\@writefile{toc}{\contentsline {subsection}{\numberline {75.12}Class ALLTests}{350}{subsection.75.12}}
\newlabel{nMOLDYN:Tests:StabilityTests:ALLTests}{{75.12}{350}{Class ALLTests\relax }{subsection.75.12}{}}
\@writefile{toc}{\contentsline {subsubsection}{\numberline {75.12.1}Methods}{350}{subsubsection.75.12.1}}
\@writefile{toc}{\contentsline {subsubsection}{\numberline {75.12.2}Class Variables}{350}{subsubsection.75.12.2}}
\@setckpt{nMOLDYN.Tests.StabilityTests-module}{
\setcounter{page}{351}
\setcounter{equation}{0}
\setcounter{enumi}{0}
\setcounter{enumii}{0}
\setcounter{enumiii}{0}
\setcounter{enumiv}{0}
\setcounter{footnote}{0}
\setcounter{mpfootnote}{0}
\setcounter{part}{0}
\setcounter{section}{75}
\setcounter{subsection}{12}
\setcounter{subsubsection}{2}
\setcounter{paragraph}{0}
\setcounter{subparagraph}{0}
\setcounter{figure}{0}
\setcounter{table}{174}
\setcounter{LT@tables}{174}
\setcounter{LT@chunks}{4}
\setcounter{Item}{0}
\setcounter{Hfootnote}{0}
\setcounter{section@level}{3}
}
