\relax 
\gdef \LT@cliii {\LT@entry 
    {1}{152.92793pt}\LT@entry 
    {1}{258.72162pt}\LT@entry 
    {1}{12.0pt}}
\@writefile{toc}{\contentsline {section}{\numberline {59}Module nMOLDYN.Tests.DCSF.runTests}{324}{section.59}}
\newlabel{nMOLDYN:Tests:DCSF:runTests}{{59}{324}{Module nMOLDYN.Tests.DCSF.runTests\relax }{section.59}{}}
\@writefile{toc}{\contentsline {subsection}{\numberline {59.1}Variables}{324}{subsection.59.1}}
\@setckpt{nMOLDYN.Tests.DCSF.runTests-module}{
\setcounter{page}{325}
\setcounter{equation}{0}
\setcounter{enumi}{0}
\setcounter{enumii}{0}
\setcounter{enumiii}{0}
\setcounter{enumiv}{0}
\setcounter{footnote}{0}
\setcounter{mpfootnote}{0}
\setcounter{part}{0}
\setcounter{section}{59}
\setcounter{subsection}{1}
\setcounter{subsubsection}{0}
\setcounter{paragraph}{0}
\setcounter{subparagraph}{0}
\setcounter{figure}{0}
\setcounter{table}{153}
\setcounter{LT@tables}{153}
\setcounter{LT@chunks}{4}
\setcounter{Item}{0}
\setcounter{Hfootnote}{0}
\setcounter{section@level}{2}
}
