\relax 
\gdef \LT@cli {\LT@entry 
    {1}{152.92793pt}\LT@entry 
    {1}{258.72162pt}\LT@entry 
    {1}{12.0pt}}
\@writefile{toc}{\contentsline {section}{\numberline {56}Module nMOLDYN.Tests.BuildTestCases}{321}{section.56}}
\newlabel{nMOLDYN:Tests:BuildTestCases}{{56}{321}{Module nMOLDYN.Tests.BuildTestCases\relax }{section.56}{}}
\@writefile{toc}{\contentsline {subsection}{\numberline {56.1}Variables}{321}{subsection.56.1}}
\@setckpt{nMOLDYN.Tests.BuildTestCases-module}{
\setcounter{page}{322}
\setcounter{equation}{0}
\setcounter{enumi}{0}
\setcounter{enumii}{0}
\setcounter{enumiii}{0}
\setcounter{enumiv}{0}
\setcounter{footnote}{0}
\setcounter{mpfootnote}{0}
\setcounter{part}{0}
\setcounter{section}{56}
\setcounter{subsection}{1}
\setcounter{subsubsection}{0}
\setcounter{paragraph}{0}
\setcounter{subparagraph}{0}
\setcounter{figure}{0}
\setcounter{table}{151}
\setcounter{LT@tables}{151}
\setcounter{LT@chunks}{4}
\setcounter{Item}{0}
\setcounter{Hfootnote}{0}
\setcounter{section@level}{2}
}
