\relax 
\gdef \LT@cxlviii {\LT@entry 
    {1}{152.92793pt}\LT@entry 
    {1}{258.72162pt}\LT@entry 
    {1}{12.0pt}}
\@writefile{toc}{\contentsline {section}{\numberline {51}Module nMOLDYN.Tests.ARA.runTests}{316}{section.51}}
\newlabel{nMOLDYN:Tests:ARA:runTests}{{51}{316}{Module nMOLDYN.Tests.ARA.runTests\relax }{section.51}{}}
\@writefile{toc}{\contentsline {subsection}{\numberline {51.1}Variables}{316}{subsection.51.1}}
\@setckpt{nMOLDYN.Tests.ARA.runTests-module}{
\setcounter{page}{317}
\setcounter{equation}{0}
\setcounter{enumi}{0}
\setcounter{enumii}{0}
\setcounter{enumiii}{0}
\setcounter{enumiv}{0}
\setcounter{footnote}{0}
\setcounter{mpfootnote}{0}
\setcounter{part}{0}
\setcounter{section}{51}
\setcounter{subsection}{1}
\setcounter{subsubsection}{0}
\setcounter{paragraph}{0}
\setcounter{subparagraph}{0}
\setcounter{figure}{0}
\setcounter{table}{148}
\setcounter{LT@tables}{148}
\setcounter{LT@chunks}{4}
\setcounter{Item}{0}
\setcounter{Hfootnote}{0}
\setcounter{section@level}{2}
}
