\relax 
\gdef \LT@clxi {\LT@entry 
    {1}{152.92793pt}\LT@entry 
    {1}{258.72162pt}\LT@entry 
    {1}{12.0pt}}
\@writefile{toc}{\contentsline {section}{\numberline {71}Module nMOLDYN.Tests.EISF.runTests}{336}{section.71}}
\newlabel{nMOLDYN:Tests:EISF:runTests}{{71}{336}{Module nMOLDYN.Tests.EISF.runTests\relax }{section.71}{}}
\@writefile{toc}{\contentsline {subsection}{\numberline {71.1}Variables}{336}{subsection.71.1}}
\@setckpt{nMOLDYN.Tests.EISF.runTests-module}{
\setcounter{page}{337}
\setcounter{equation}{0}
\setcounter{enumi}{0}
\setcounter{enumii}{0}
\setcounter{enumiii}{0}
\setcounter{enumiv}{0}
\setcounter{footnote}{0}
\setcounter{mpfootnote}{0}
\setcounter{part}{0}
\setcounter{section}{71}
\setcounter{subsection}{1}
\setcounter{subsubsection}{0}
\setcounter{paragraph}{0}
\setcounter{subparagraph}{0}
\setcounter{figure}{0}
\setcounter{table}{161}
\setcounter{LT@tables}{161}
\setcounter{LT@chunks}{4}
\setcounter{Item}{0}
\setcounter{Hfootnote}{0}
\setcounter{section@level}{2}
}
