\relax 
\gdef \LT@clxiii {\LT@entry 
    {1}{152.92793pt}\LT@entry 
    {1}{258.72162pt}\LT@entry 
    {1}{12.0pt}}
\@writefile{toc}{\contentsline {section}{\numberline {74}Module nMOLDYN.Tests.MSD.runTests}{339}{section.74}}
\newlabel{nMOLDYN:Tests:MSD:runTests}{{74}{339}{Module nMOLDYN.Tests.MSD.runTests\relax }{section.74}{}}
\@writefile{toc}{\contentsline {subsection}{\numberline {74.1}Variables}{339}{subsection.74.1}}
\@setckpt{nMOLDYN.Tests.MSD.runTests-module}{
\setcounter{page}{340}
\setcounter{equation}{0}
\setcounter{enumi}{0}
\setcounter{enumii}{0}
\setcounter{enumiii}{0}
\setcounter{enumiv}{0}
\setcounter{footnote}{0}
\setcounter{mpfootnote}{0}
\setcounter{part}{0}
\setcounter{section}{74}
\setcounter{subsection}{1}
\setcounter{subsubsection}{0}
\setcounter{paragraph}{0}
\setcounter{subparagraph}{0}
\setcounter{figure}{0}
\setcounter{table}{163}
\setcounter{LT@tables}{163}
\setcounter{LT@chunks}{4}
\setcounter{Item}{0}
\setcounter{Hfootnote}{0}
\setcounter{section@level}{2}
}
