\relax 
\gdef \LT@clvii {\LT@entry 
    {1}{152.92793pt}\LT@entry 
    {1}{258.72162pt}\LT@entry 
    {1}{12.0pt}}
\@writefile{toc}{\contentsline {section}{\numberline {65}Module nMOLDYN.Tests.DISFG.runTests}{330}{section.65}}
\newlabel{nMOLDYN:Tests:DISFG:runTests}{{65}{330}{Module nMOLDYN.Tests.DISFG.runTests\relax }{section.65}{}}
\@writefile{toc}{\contentsline {subsection}{\numberline {65.1}Variables}{330}{subsection.65.1}}
\@setckpt{nMOLDYN.Tests.DISFG.runTests-module}{
\setcounter{page}{331}
\setcounter{equation}{0}
\setcounter{enumi}{0}
\setcounter{enumii}{0}
\setcounter{enumiii}{0}
\setcounter{enumiv}{0}
\setcounter{footnote}{0}
\setcounter{mpfootnote}{0}
\setcounter{part}{0}
\setcounter{section}{65}
\setcounter{subsection}{1}
\setcounter{subsubsection}{0}
\setcounter{paragraph}{0}
\setcounter{subparagraph}{0}
\setcounter{figure}{0}
\setcounter{table}{157}
\setcounter{LT@tables}{157}
\setcounter{LT@chunks}{4}
\setcounter{Item}{0}
\setcounter{Hfootnote}{0}
\setcounter{section@level}{2}
}
