\relax 
\@writefile{toc}{\contentsline {section}{\numberline {45}Module nMOLDYN.GUI.TrajectoryConversionDialog}{252}{section.45}}
\newlabel{nMOLDYN:GUI:TrajectoryConversionDialog}{{45}{252}{Module nMOLDYN.GUI.TrajectoryConversionDialog\relax }{section.45}{}}
\@writefile{toc}{\contentsline {subsection}{\numberline {45.1}Class AmberNetCDFConverterDialog}{252}{subsection.45.1}}
\newlabel{nMOLDYN:GUI:TrajectoryConversionDialog:AmberNetCDFConverterDialog}{{45.1}{252}{Class AmberNetCDFConverterDialog\relax }{subsection.45.1}{}}
\@writefile{toc}{\contentsline {subsubsection}{\numberline {45.1.1}Methods}{252}{subsubsection.45.1.1}}
\newlabel{nMOLDYN:GUI:TrajectoryConversionDialog:AmberNetCDFConverterDialog:__init__}{{45.1.1}{252}{Methods\relax }{subsubsection.45.1.1}{}}
\newlabel{nMOLDYN:GUI:TrajectoryConversionDialog:AmberNetCDFConverterDialog:body}{{45.1.1}{252}{Methods\relax }{subsubsection.45.1.1}{}}
\newlabel{nMOLDYN:GUI:TrajectoryConversionDialog:AmberNetCDFConverterDialog:buttonbox}{{45.1.1}{252}{Methods\relax }{subsubsection.45.1.1}{}}
\newlabel{nMOLDYN:GUI:TrajectoryConversionDialog:AmberNetCDFConverterDialog:ok}{{45.1.1}{253}{Methods\relax }{subsubsection.45.1.1}{}}
\newlabel{nMOLDYN:GUI:TrajectoryConversionDialog:AmberNetCDFConverterDialog:cancel}{{45.1.1}{253}{Methods\relax }{subsubsection.45.1.1}{}}
\newlabel{nMOLDYN:GUI:TrajectoryConversionDialog:AmberNetCDFConverterDialog:validate}{{45.1.1}{253}{Methods\relax }{subsubsection.45.1.1}{}}
\newlabel{nMOLDYN:GUI:TrajectoryConversionDialog:AmberNetCDFConverterDialog:apply}{{45.1.1}{253}{Methods\relax }{subsubsection.45.1.1}{}}
\newlabel{nMOLDYN:GUI:TrajectoryConversionDialog:AmberNetCDFConverterDialog:suggestOutputFilename}{{45.1.1}{253}{Methods\relax }{subsubsection.45.1.1}{}}
\@writefile{toc}{\contentsline {subsection}{\numberline {45.2}Class CHARMMConverterDialog}{253}{subsection.45.2}}
\newlabel{nMOLDYN:GUI:TrajectoryConversionDialog:CHARMMConverterDialog}{{45.2}{253}{Class CHARMMConverterDialog\relax }{subsection.45.2}{}}
\@writefile{toc}{\contentsline {subsubsection}{\numberline {45.2.1}Methods}{253}{subsubsection.45.2.1}}
\newlabel{nMOLDYN:GUI:TrajectoryConversionDialog:CHARMMConverterDialog:__init__}{{45.2.1}{253}{Methods\relax }{subsubsection.45.2.1}{}}
\newlabel{nMOLDYN:GUI:TrajectoryConversionDialog:CHARMMConverterDialog:body}{{45.2.1}{253}{Methods\relax }{subsubsection.45.2.1}{}}
\newlabel{nMOLDYN:GUI:TrajectoryConversionDialog:CHARMMConverterDialog:buttonbox}{{45.2.1}{253}{Methods\relax }{subsubsection.45.2.1}{}}
\newlabel{nMOLDYN:GUI:TrajectoryConversionDialog:CHARMMConverterDialog:ok}{{45.2.1}{253}{Methods\relax }{subsubsection.45.2.1}{}}
\newlabel{nMOLDYN:GUI:TrajectoryConversionDialog:CHARMMConverterDialog:cancel}{{45.2.1}{254}{Methods\relax }{subsubsection.45.2.1}{}}
\newlabel{nMOLDYN:GUI:TrajectoryConversionDialog:CHARMMConverterDialog:validate}{{45.2.1}{254}{Methods\relax }{subsubsection.45.2.1}{}}
\newlabel{nMOLDYN:GUI:TrajectoryConversionDialog:CHARMMConverterDialog:apply}{{45.2.1}{254}{Methods\relax }{subsubsection.45.2.1}{}}
\newlabel{nMOLDYN:GUI:TrajectoryConversionDialog:CHARMMConverterDialog:suggestOutputFilename}{{45.2.1}{254}{Methods\relax }{subsubsection.45.2.1}{}}
\@writefile{toc}{\contentsline {subsection}{\numberline {45.3}Class DL\_POLYConverterDialog}{254}{subsection.45.3}}
\newlabel{nMOLDYN:GUI:TrajectoryConversionDialog:DL_POLYConverterDialog}{{45.3}{254}{Class DL\_POLYConverterDialog\relax }{subsection.45.3}{}}
\@writefile{toc}{\contentsline {subsubsection}{\numberline {45.3.1}Methods}{254}{subsubsection.45.3.1}}
\newlabel{nMOLDYN:GUI:TrajectoryConversionDialog:DL_POLYConverterDialog:__init__}{{45.3.1}{254}{Methods\relax }{subsubsection.45.3.1}{}}
\newlabel{nMOLDYN:GUI:TrajectoryConversionDialog:DL_POLYConverterDialog:body}{{45.3.1}{254}{Methods\relax }{subsubsection.45.3.1}{}}
\newlabel{nMOLDYN:GUI:TrajectoryConversionDialog:DL_POLYConverterDialog:buttonbox}{{45.3.1}{254}{Methods\relax }{subsubsection.45.3.1}{}}
\newlabel{nMOLDYN:GUI:TrajectoryConversionDialog:DL_POLYConverterDialog:ok}{{45.3.1}{254}{Methods\relax }{subsubsection.45.3.1}{}}
\newlabel{nMOLDYN:GUI:TrajectoryConversionDialog:DL_POLYConverterDialog:cancel}{{45.3.1}{255}{Methods\relax }{subsubsection.45.3.1}{}}
\newlabel{nMOLDYN:GUI:TrajectoryConversionDialog:DL_POLYConverterDialog:validate}{{45.3.1}{255}{Methods\relax }{subsubsection.45.3.1}{}}
\newlabel{nMOLDYN:GUI:TrajectoryConversionDialog:DL_POLYConverterDialog:apply}{{45.3.1}{255}{Methods\relax }{subsubsection.45.3.1}{}}
\@writefile{toc}{\contentsline {subsection}{\numberline {45.4}Class MaterialsStudioConverterDialog}{255}{subsection.45.4}}
\newlabel{nMOLDYN:GUI:TrajectoryConversionDialog:MaterialsStudioConverterDialog}{{45.4}{255}{Class MaterialsStudioConverterDialog\relax }{subsection.45.4}{}}
\@writefile{toc}{\contentsline {subsubsection}{\numberline {45.4.1}Methods}{255}{subsubsection.45.4.1}}
\newlabel{nMOLDYN:GUI:TrajectoryConversionDialog:MaterialsStudioConverterDialog:__init__}{{45.4.1}{255}{Methods\relax }{subsubsection.45.4.1}{}}
\newlabel{nMOLDYN:GUI:TrajectoryConversionDialog:MaterialsStudioConverterDialog:body}{{45.4.1}{255}{Methods\relax }{subsubsection.45.4.1}{}}
\newlabel{nMOLDYN:GUI:TrajectoryConversionDialog:MaterialsStudioConverterDialog:buttonbox}{{45.4.1}{255}{Methods\relax }{subsubsection.45.4.1}{}}
\newlabel{nMOLDYN:GUI:TrajectoryConversionDialog:MaterialsStudioConverterDialog:ok}{{45.4.1}{255}{Methods\relax }{subsubsection.45.4.1}{}}
\newlabel{nMOLDYN:GUI:TrajectoryConversionDialog:MaterialsStudioConverterDialog:cancel}{{45.4.1}{255}{Methods\relax }{subsubsection.45.4.1}{}}
\newlabel{nMOLDYN:GUI:TrajectoryConversionDialog:MaterialsStudioConverterDialog:validate}{{45.4.1}{255}{Methods\relax }{subsubsection.45.4.1}{}}
\newlabel{nMOLDYN:GUI:TrajectoryConversionDialog:MaterialsStudioConverterDialog:apply}{{45.4.1}{255}{Methods\relax }{subsubsection.45.4.1}{}}
\newlabel{nMOLDYN:GUI:TrajectoryConversionDialog:MaterialsStudioConverterDialog:suggestOutputFilename}{{45.4.1}{256}{Methods\relax }{subsubsection.45.4.1}{}}
\@writefile{toc}{\contentsline {subsection}{\numberline {45.5}Class NAMDConverterDialog}{256}{subsection.45.5}}
\newlabel{nMOLDYN:GUI:TrajectoryConversionDialog:NAMDConverterDialog}{{45.5}{256}{Class NAMDConverterDialog\relax }{subsection.45.5}{}}
\@writefile{toc}{\contentsline {subsubsection}{\numberline {45.5.1}Methods}{256}{subsubsection.45.5.1}}
\newlabel{nMOLDYN:GUI:TrajectoryConversionDialog:NAMDConverterDialog:__init__}{{45.5.1}{256}{Methods\relax }{subsubsection.45.5.1}{}}
\newlabel{nMOLDYN:GUI:TrajectoryConversionDialog:NAMDConverterDialog:body}{{45.5.1}{256}{Methods\relax }{subsubsection.45.5.1}{}}
\newlabel{nMOLDYN:GUI:TrajectoryConversionDialog:NAMDConverterDialog:buttonbox}{{45.5.1}{256}{Methods\relax }{subsubsection.45.5.1}{}}
\newlabel{nMOLDYN:GUI:TrajectoryConversionDialog:NAMDConverterDialog:ok}{{45.5.1}{256}{Methods\relax }{subsubsection.45.5.1}{}}
\newlabel{nMOLDYN:GUI:TrajectoryConversionDialog:NAMDConverterDialog:cancel}{{45.5.1}{256}{Methods\relax }{subsubsection.45.5.1}{}}
\newlabel{nMOLDYN:GUI:TrajectoryConversionDialog:NAMDConverterDialog:validate}{{45.5.1}{256}{Methods\relax }{subsubsection.45.5.1}{}}
\newlabel{nMOLDYN:GUI:TrajectoryConversionDialog:NAMDConverterDialog:apply}{{45.5.1}{256}{Methods\relax }{subsubsection.45.5.1}{}}
\newlabel{nMOLDYN:GUI:TrajectoryConversionDialog:NAMDConverterDialog:suggestOutputFilename}{{45.5.1}{256}{Methods\relax }{subsubsection.45.5.1}{}}
\@writefile{toc}{\contentsline {subsection}{\numberline {45.6}Class VASPConverterDialog}{257}{subsection.45.6}}
\newlabel{nMOLDYN:GUI:TrajectoryConversionDialog:VASPConverterDialog}{{45.6}{257}{Class VASPConverterDialog\relax }{subsection.45.6}{}}
\@writefile{toc}{\contentsline {subsubsection}{\numberline {45.6.1}Methods}{257}{subsubsection.45.6.1}}
\newlabel{nMOLDYN:GUI:TrajectoryConversionDialog:VASPConverterDialog:__init__}{{45.6.1}{257}{Methods\relax }{subsubsection.45.6.1}{}}
\newlabel{nMOLDYN:GUI:TrajectoryConversionDialog:VASPConverterDialog:body}{{45.6.1}{257}{Methods\relax }{subsubsection.45.6.1}{}}
\newlabel{nMOLDYN:GUI:TrajectoryConversionDialog:VASPConverterDialog:buttonbox}{{45.6.1}{257}{Methods\relax }{subsubsection.45.6.1}{}}
\newlabel{nMOLDYN:GUI:TrajectoryConversionDialog:VASPConverterDialog:ok}{{45.6.1}{257}{Methods\relax }{subsubsection.45.6.1}{}}
\newlabel{nMOLDYN:GUI:TrajectoryConversionDialog:VASPConverterDialog:cancel}{{45.6.1}{257}{Methods\relax }{subsubsection.45.6.1}{}}
\newlabel{nMOLDYN:GUI:TrajectoryConversionDialog:VASPConverterDialog:validate}{{45.6.1}{257}{Methods\relax }{subsubsection.45.6.1}{}}
\newlabel{nMOLDYN:GUI:TrajectoryConversionDialog:VASPConverterDialog:apply}{{45.6.1}{257}{Methods\relax }{subsubsection.45.6.1}{}}
\@setckpt{nMOLDYN.GUI.TrajectoryConversionDialog-module}{
\setcounter{page}{258}
\setcounter{equation}{0}
\setcounter{enumi}{0}
\setcounter{enumii}{0}
\setcounter{enumiii}{0}
\setcounter{enumiv}{0}
\setcounter{footnote}{0}
\setcounter{mpfootnote}{0}
\setcounter{part}{0}
\setcounter{section}{45}
\setcounter{subsection}{6}
\setcounter{subsubsection}{1}
\setcounter{paragraph}{0}
\setcounter{subparagraph}{0}
\setcounter{figure}{0}
\setcounter{table}{125}
\setcounter{LT@tables}{125}
\setcounter{LT@chunks}{4}
\setcounter{Item}{0}
\setcounter{Hfootnote}{0}
\setcounter{section@level}{3}
}
