\relax 
\gdef \LT@lxvi {\LT@entry 
    {1}{152.92793pt}\LT@entry 
    {1}{258.72162pt}\LT@entry 
    {1}{12.0pt}}
\@writefile{toc}{\contentsline {section}{\numberline {35}Module nMOLDYN.Tests.CSF.TestsContents}{196}{section.35}}
\newlabel{nMOLDYN:Tests:CSF:TestsContents}{{35}{196}{Module nMOLDYN.Tests.CSF.TestsContents\relax }{section.35}{}}
\@writefile{toc}{\contentsline {subsection}{\numberline {35.1}Variables}{196}{subsection.35.1}}
\@setckpt{nMOLDYN.Tests.CSF.TestsContents-module}{
\setcounter{page}{197}
\setcounter{equation}{0}
\setcounter{enumi}{0}
\setcounter{enumii}{0}
\setcounter{enumiii}{0}
\setcounter{enumiv}{0}
\setcounter{footnote}{0}
\setcounter{mpfootnote}{0}
\setcounter{part}{0}
\setcounter{section}{35}
\setcounter{subsection}{1}
\setcounter{subsubsection}{0}
\setcounter{paragraph}{0}
\setcounter{subparagraph}{0}
\setcounter{figure}{0}
\setcounter{table}{66}
\setcounter{LT@tables}{66}
\setcounter{LT@chunks}{4}
\setcounter{Item}{0}
\setcounter{Hfootnote}{0}
\setcounter{section@level}{2}
}
