\relax 
\@writefile{toc}{\contentsline {section}{\numberline {48}Package nMOLDYN.Tests}{313}{section.48}}
\newlabel{nMOLDYN:Tests}{{48}{313}{Package nMOLDYN.Tests\relax }{section.48}{}}
\@writefile{toc}{\contentsline {subsection}{\numberline {48.1}Modules}{313}{subsection.48.1}}
\@setckpt{nMOLDYN.Tests-module}{
\setcounter{page}{314}
\setcounter{equation}{0}
\setcounter{enumi}{0}
\setcounter{enumii}{0}
\setcounter{enumiii}{0}
\setcounter{enumiv}{0}
\setcounter{footnote}{0}
\setcounter{mpfootnote}{0}
\setcounter{part}{0}
\setcounter{section}{48}
\setcounter{subsection}{1}
\setcounter{subsubsection}{0}
\setcounter{paragraph}{0}
\setcounter{subparagraph}{0}
\setcounter{figure}{0}
\setcounter{table}{146}
\setcounter{LT@tables}{146}
\setcounter{LT@chunks}{4}
\setcounter{Item}{0}
\setcounter{Hfootnote}{0}
\setcounter{section@level}{2}
}
