\relax 
\gdef \LT@clx {\LT@entry 
    {1}{152.92793pt}\LT@entry 
    {1}{258.72162pt}\LT@entry 
    {1}{12.0pt}}
\@writefile{toc}{\contentsline {section}{\numberline {70}Module nMOLDYN.Tests.EISF.TestsContents}{335}{section.70}}
\newlabel{nMOLDYN:Tests:EISF:TestsContents}{{70}{335}{Module nMOLDYN.Tests.EISF.TestsContents\relax }{section.70}{}}
\@writefile{toc}{\contentsline {subsection}{\numberline {70.1}Variables}{335}{subsection.70.1}}
\@setckpt{nMOLDYN.Tests.EISF.TestsContents-module}{
\setcounter{page}{336}
\setcounter{equation}{0}
\setcounter{enumi}{0}
\setcounter{enumii}{0}
\setcounter{enumiii}{0}
\setcounter{enumiv}{0}
\setcounter{footnote}{0}
\setcounter{mpfootnote}{0}
\setcounter{part}{0}
\setcounter{section}{70}
\setcounter{subsection}{1}
\setcounter{subsubsection}{0}
\setcounter{paragraph}{0}
\setcounter{subparagraph}{0}
\setcounter{figure}{0}
\setcounter{table}{160}
\setcounter{LT@tables}{160}
\setcounter{LT@chunks}{4}
\setcounter{Item}{0}
\setcounter{Hfootnote}{0}
\setcounter{section@level}{2}
}
