\relax 
\@writefile{toc}{\contentsline {section}{\numberline {49}Package nMOLDYN.Tests.ARA}{314}{section.49}}
\newlabel{nMOLDYN:Tests:ARA}{{49}{314}{Package nMOLDYN.Tests.ARA\relax }{section.49}{}}
\@writefile{toc}{\contentsline {subsection}{\numberline {49.1}Modules}{314}{subsection.49.1}}
\@setckpt{nMOLDYN.Tests.ARA-module}{
\setcounter{page}{315}
\setcounter{equation}{0}
\setcounter{enumi}{0}
\setcounter{enumii}{0}
\setcounter{enumiii}{0}
\setcounter{enumiv}{0}
\setcounter{footnote}{0}
\setcounter{mpfootnote}{0}
\setcounter{part}{0}
\setcounter{section}{49}
\setcounter{subsection}{1}
\setcounter{subsubsection}{0}
\setcounter{paragraph}{0}
\setcounter{subparagraph}{0}
\setcounter{figure}{0}
\setcounter{table}{146}
\setcounter{LT@tables}{146}
\setcounter{LT@chunks}{4}
\setcounter{Item}{0}
\setcounter{Hfootnote}{0}
\setcounter{section@level}{2}
}
