\relax 
\@writefile{toc}{\contentsline {section}{\numberline {60}Package nMOLDYN.Tests.DISF}{325}{section.60}}
\newlabel{nMOLDYN:Tests:DISF}{{60}{325}{Package nMOLDYN.Tests.DISF\relax }{section.60}{}}
\@writefile{toc}{\contentsline {subsection}{\numberline {60.1}Modules}{325}{subsection.60.1}}
\@setckpt{nMOLDYN.Tests.DISF-module}{
\setcounter{page}{326}
\setcounter{equation}{0}
\setcounter{enumi}{0}
\setcounter{enumii}{0}
\setcounter{enumiii}{0}
\setcounter{enumiv}{0}
\setcounter{footnote}{0}
\setcounter{mpfootnote}{0}
\setcounter{part}{0}
\setcounter{section}{60}
\setcounter{subsection}{1}
\setcounter{subsubsection}{0}
\setcounter{paragraph}{0}
\setcounter{subparagraph}{0}
\setcounter{figure}{0}
\setcounter{table}{153}
\setcounter{LT@tables}{153}
\setcounter{LT@chunks}{4}
\setcounter{Item}{0}
\setcounter{Hfootnote}{0}
\setcounter{section@level}{2}
}
