\relax 
\gdef \LT@clv {\LT@entry 
    {1}{152.92793pt}\LT@entry 
    {1}{258.72162pt}\LT@entry 
    {1}{12.0pt}}
\@writefile{toc}{\contentsline {section}{\numberline {62}Module nMOLDYN.Tests.DISF.runTests}{327}{section.62}}
\newlabel{nMOLDYN:Tests:DISF:runTests}{{62}{327}{Module nMOLDYN.Tests.DISF.runTests\relax }{section.62}{}}
\@writefile{toc}{\contentsline {subsection}{\numberline {62.1}Variables}{327}{subsection.62.1}}
\@setckpt{nMOLDYN.Tests.DISF.runTests-module}{
\setcounter{page}{328}
\setcounter{equation}{0}
\setcounter{enumi}{0}
\setcounter{enumii}{0}
\setcounter{enumiii}{0}
\setcounter{enumiv}{0}
\setcounter{footnote}{0}
\setcounter{mpfootnote}{0}
\setcounter{part}{0}
\setcounter{section}{62}
\setcounter{subsection}{1}
\setcounter{subsubsection}{0}
\setcounter{paragraph}{0}
\setcounter{subparagraph}{0}
\setcounter{figure}{0}
\setcounter{table}{155}
\setcounter{LT@tables}{155}
\setcounter{LT@chunks}{4}
\setcounter{Item}{0}
\setcounter{Hfootnote}{0}
\setcounter{section@level}{2}
}
