\relax 
\@writefile{toc}{\contentsline {section}{\numberline {40}Package nMOLDYN.Tests.ISF}{201}{section.40}}
\newlabel{nMOLDYN:Tests:ISF}{{40}{201}{Package nMOLDYN.Tests.ISF\relax }{section.40}{}}
\@writefile{toc}{\contentsline {subsection}{\numberline {40.1}Modules}{201}{subsection.40.1}}
\@setckpt{nMOLDYN.Tests.ISF-module}{
\setcounter{page}{202}
\setcounter{equation}{0}
\setcounter{enumi}{0}
\setcounter{enumii}{0}
\setcounter{enumiii}{0}
\setcounter{enumiv}{0}
\setcounter{footnote}{0}
\setcounter{mpfootnote}{0}
\setcounter{part}{0}
\setcounter{section}{40}
\setcounter{subsection}{1}
\setcounter{subsubsection}{0}
\setcounter{paragraph}{0}
\setcounter{subparagraph}{0}
\setcounter{figure}{0}
\setcounter{table}{69}
\setcounter{LT@tables}{69}
\setcounter{LT@chunks}{4}
\setcounter{Item}{0}
\setcounter{Hfootnote}{0}
\setcounter{section@level}{2}
}
