\relax 
\@writefile{toc}{\contentsline {section}{\numberline {34}Package nMOLDYN.Tests.CSF}{195}{section.34}}
\newlabel{nMOLDYN:Tests:CSF}{{34}{195}{Package nMOLDYN.Tests.CSF\relax }{section.34}{}}
\@writefile{toc}{\contentsline {subsection}{\numberline {34.1}Modules}{195}{subsection.34.1}}
\@setckpt{nMOLDYN.Tests.CSF-module}{
\setcounter{page}{196}
\setcounter{equation}{0}
\setcounter{enumi}{0}
\setcounter{enumii}{0}
\setcounter{enumiii}{0}
\setcounter{enumiv}{0}
\setcounter{footnote}{0}
\setcounter{mpfootnote}{0}
\setcounter{part}{0}
\setcounter{section}{34}
\setcounter{subsection}{1}
\setcounter{subsubsection}{0}
\setcounter{paragraph}{0}
\setcounter{subparagraph}{0}
\setcounter{figure}{0}
\setcounter{table}{65}
\setcounter{LT@tables}{65}
\setcounter{LT@chunks}{4}
\setcounter{Item}{0}
\setcounter{Hfootnote}{0}
\setcounter{section@level}{2}
}
