\relax 
\gdef \LT@clxii {\LT@entry 
    {1}{152.92793pt}\LT@entry 
    {1}{258.72162pt}\LT@entry 
    {1}{12.0pt}}
\@writefile{toc}{\contentsline {section}{\numberline {73}Module nMOLDYN.Tests.MSD.TestsContents}{338}{section.73}}
\newlabel{nMOLDYN:Tests:MSD:TestsContents}{{73}{338}{Module nMOLDYN.Tests.MSD.TestsContents\relax }{section.73}{}}
\@writefile{toc}{\contentsline {subsection}{\numberline {73.1}Variables}{338}{subsection.73.1}}
\@setckpt{nMOLDYN.Tests.MSD.TestsContents-module}{
\setcounter{page}{339}
\setcounter{equation}{0}
\setcounter{enumi}{0}
\setcounter{enumii}{0}
\setcounter{enumiii}{0}
\setcounter{enumiv}{0}
\setcounter{footnote}{0}
\setcounter{mpfootnote}{0}
\setcounter{part}{0}
\setcounter{section}{73}
\setcounter{subsection}{1}
\setcounter{subsubsection}{0}
\setcounter{paragraph}{0}
\setcounter{subparagraph}{0}
\setcounter{figure}{0}
\setcounter{table}{162}
\setcounter{LT@tables}{162}
\setcounter{LT@chunks}{4}
\setcounter{Item}{0}
\setcounter{Hfootnote}{0}
\setcounter{section@level}{2}
}
