\relax 
\gdef \LT@cl {\LT@entry 
    {1}{152.92793pt}\LT@entry 
    {1}{258.72162pt}\LT@entry 
    {1}{12.0pt}}
\@writefile{toc}{\contentsline {section}{\numberline {54}Module nMOLDYN.Tests.AVACF.runTests}{319}{section.54}}
\newlabel{nMOLDYN:Tests:AVACF:runTests}{{54}{319}{Module nMOLDYN.Tests.AVACF.runTests\relax }{section.54}{}}
\@writefile{toc}{\contentsline {subsection}{\numberline {54.1}Variables}{319}{subsection.54.1}}
\@setckpt{nMOLDYN.Tests.AVACF.runTests-module}{
\setcounter{page}{320}
\setcounter{equation}{0}
\setcounter{enumi}{0}
\setcounter{enumii}{0}
\setcounter{enumiii}{0}
\setcounter{enumiv}{0}
\setcounter{footnote}{0}
\setcounter{mpfootnote}{0}
\setcounter{part}{0}
\setcounter{section}{54}
\setcounter{subsection}{1}
\setcounter{subsubsection}{0}
\setcounter{paragraph}{0}
\setcounter{subparagraph}{0}
\setcounter{figure}{0}
\setcounter{table}{150}
\setcounter{LT@tables}{150}
\setcounter{LT@chunks}{4}
\setcounter{Item}{0}
\setcounter{Hfootnote}{0}
\setcounter{section@level}{2}
}
