\relax 
\@writefile{toc}{\contentsline {section}{\numberline {11}Module nMOLDYN.Core.Chemistry}{152}{section.11}}
\newlabel{nMOLDYN:Core:Chemistry}{{11}{152}{Module nMOLDYN.Core.Chemistry\relax }{section.11}{}}
\@writefile{toc}{\contentsline {subsection}{\numberline {11.1}Functions}{152}{subsection.11.1}}
\newlabel{nMOLDYN:Core:Chemistry:belongToAMethyl}{{11.1}{152}{Functions\relax }{subsection.11.1}{}}
\newlabel{nMOLDYN:Core:Chemistry:belongToAnAmine}{{11.1}{152}{Functions\relax }{subsection.11.1}{}}
\newlabel{nMOLDYN:Core:Chemistry:belongToAThiol}{{11.1}{152}{Functions\relax }{subsection.11.1}{}}
\newlabel{nMOLDYN:Core:Chemistry:belongToAHydroxy}{{11.1}{152}{Functions\relax }{subsection.11.1}{}}
\@setckpt{nMOLDYN.Core.Chemistry-module}{
\setcounter{page}{153}
\setcounter{equation}{0}
\setcounter{enumi}{0}
\setcounter{enumii}{0}
\setcounter{enumiii}{0}
\setcounter{enumiv}{0}
\setcounter{footnote}{0}
\setcounter{mpfootnote}{0}
\setcounter{part}{0}
\setcounter{section}{11}
\setcounter{subsection}{1}
\setcounter{subsubsection}{0}
\setcounter{paragraph}{0}
\setcounter{subparagraph}{0}
\setcounter{figure}{0}
\setcounter{table}{89}
\setcounter{LT@tables}{89}
\setcounter{LT@chunks}{4}
\setcounter{Item}{0}
\setcounter{Hfootnote}{0}
\setcounter{section@level}{2}
}
