\relax 
\@writefile{toc}{\contentsline {section}{\numberline {63}Package nMOLDYN.Tests.DISFG}{328}{section.63}}
\newlabel{nMOLDYN:Tests:DISFG}{{63}{328}{Package nMOLDYN.Tests.DISFG\relax }{section.63}{}}
\@writefile{toc}{\contentsline {subsection}{\numberline {63.1}Modules}{328}{subsection.63.1}}
\@setckpt{nMOLDYN.Tests.DISFG-module}{
\setcounter{page}{329}
\setcounter{equation}{0}
\setcounter{enumi}{0}
\setcounter{enumii}{0}
\setcounter{enumiii}{0}
\setcounter{enumiv}{0}
\setcounter{footnote}{0}
\setcounter{mpfootnote}{0}
\setcounter{part}{0}
\setcounter{section}{63}
\setcounter{subsection}{1}
\setcounter{subsubsection}{0}
\setcounter{paragraph}{0}
\setcounter{subparagraph}{0}
\setcounter{figure}{0}
\setcounter{table}{155}
\setcounter{LT@tables}{155}
\setcounter{LT@chunks}{4}
\setcounter{Item}{0}
\setcounter{Hfootnote}{0}
\setcounter{section@level}{2}
}
