\relax 
\@newglossarytype [alg]{acronym}{acr}{acn}
\@istfilename {nMOLDYN_for_HTML.ist}
\citation{Rog}
\citation{Schiller}
\citation{Hinsen:2000}
\citation{MMTK}
\citation{NetCDF}
\citation{Davies}
\@writefile{toc}{\contentsline {chapter}{Table of Contents}{3}}
\@writefile{toc}{\contentsline {chapter}{List of Figures}{5}}
\@writefile{toc}{\contentsline {chapter}{List of Tables}{6}}
\gdef \LT@i {\LT@entry 
    {3}{409.99652pt}\LT@entry 
    {3}{228.0022pt}}
\citation{Lovesey}
\citation{Bee}
\citation{Lovesey}
\citation{Kneller:1994}
\citation{Geiger:1989}
\citation{Geiger:1990}
\citation{Ahlrichs}
\citation{Yip:1987}
\citation{Smith:1992}
\citation{Smith:1993}
\@writefile{toc}{\contentsline {chapter}{\numberline {1}Introduction}{9}}
\@writefile{lof}{\addvspace {10\p@ }}
\@writefile{lot}{\addvspace {10\p@ }}
\newlabel{global_introduction}{{1}{9}}
\citation{vanRossum}
\citation{python}
\citation{NumPy}
\citation{NetCDF}
\citation{Davies}
\citation{Scientific1}
\citation{Scientific2}
\citation{Hinsen:2000}
\citation{MMTK}
\citation{OpenSource}
\citation{Pyrex}
\citation{Tk}
\citation{matplotlib}
\citation{Amber}
\citation{CHARMM}
\citation{DL_POLY}
\citation{MaterialsStudio}
\citation{NAMD}
\citation{VASP}
\citation{X-PLOR}
\citation{ncdump}
\citation{ncgen}
\@writefile{toc}{\contentsline {section}{\numberline {1.1}New features in version 3.0}{10}}
\newlabel{new_features_in_version_3}{{1.1}{10}}
\citation{Bruschweiler}
\citation{Calligari}
\@writefile{toc}{\contentsline {section}{\numberline {1.2}User feedback}{11}}
\newlabel{user_feedback}{{1.2}{11}}
\citation{nMOLDYN1}
\citation{nMOLDYN2}
\citation{CeCILL}
\citation{TclTk}
\citation{python}
\citation{NumPy}
\citation{matplotlib}
\citation{Pyro}
\citation{Scientific1}
\citation{Scientific2}
\citation{Hinsen:2000}
\citation{MMTK}
\citation{pywin32}
\@writefile{toc}{\contentsline {chapter}{\numberline {2}Installing \textit  {n}MOLDYN}{12}}
\@writefile{lof}{\addvspace {10\p@ }}
\@writefile{lot}{\addvspace {10\p@ }}
\newlabel{installing_nmoldyn}{{2}{12}}
\@writefile{toc}{\contentsline {section}{\numberline {2.1}Unix users}{12}}
\newlabel{unix_users}{{2.1}{12}}
\@writefile{toc}{\contentsline {section}{\numberline {2.2}Windows users}{13}}
\newlabel{window_users}{{2.2}{13}}
\citation{UCAR}
\citation{NetCDF_Softwares}
\citation{PDB}
\@writefile{toc}{\contentsline {chapter}{\numberline {3}Input and output files}{14}}
\@writefile{lof}{\addvspace {10\p@ }}
\@writefile{lot}{\addvspace {10\p@ }}
\newlabel{input_and_output_files}{{3}{14}}
\@writefile{toc}{\contentsline {section}{\numberline {3.1}NetCDF file format}{14}}
\newlabel{netcdf_file_format}{{3.1}{14}}
\citation{ConfigParser}
\@writefile{toc}{\contentsline {section}{\numberline {3.2}PDB file format}{15}}
\newlabel{pdb_file_format}{{3.2}{15}}
\@writefile{toc}{\contentsline {section}{\numberline {3.3}\textit  {n}MOLDYN\ preference file}{15}}
\newlabel{nmoldyn_preferences_file}{{3.3}{15}}
\@writefile{toc}{\contentsline {section}{\numberline {3.4}\textit  {n}MOLDYN\ selection files}{15}}
\newlabel{nmoldyn_selection_files}{{3.4}{15}}
\@writefile{toc}{\contentsline {section}{\numberline {3.5}\textit  {n}MOLDYN\ autostart files}{15}}
\newlabel{nmoldyn_autostart_file}{{3.5}{15}}
\@writefile{toc}{\contentsline {section}{\numberline {3.6}\textit  {n}MOLDYN\ input files}{15}}
\newlabel{nmoldyn_input_files}{{3.6}{15}}
\@writefile{toc}{\contentsline {chapter}{\numberline {4}Using \textit  {n}MOLDYNfrom the Graphical User Interface}{16}}
\@writefile{lof}{\addvspace {10\p@ }}
\@writefile{lot}{\addvspace {10\p@ }}
\newlabel{running_nmoldyn_from_the_graphical_user_interface}{{4}{16}}
\@writefile{lof}{\contentsline {figure}{\numberline {4.1}{\ignorespaces The \textit  {n}MOLDYN main window}}{20}}
\newlabel{fig:main_dialog}{{4.1}{20}}
\@writefile{toc}{\contentsline {section}{\numberline {4.1}The \textbf  {File} menu}{20}}
\newlabel{file_menu}{{4.1}{20}}
\@writefile{toc}{\contentsline {subsection}{\numberline {4.1.1}Load NetCDF file}{20}}
\newlabel{load_netcdf_file}{{4.1.1}{20}}
\citation{MMTK_TrajectorySet}
\@writefile{lof}{\contentsline {figure}{\numberline {4.2}{\ignorespaces File-Directory selection window}}{21}}
\newlabel{fig:file_browser}{{4.2}{21}}
\@writefile{lof}{\contentsline {figure}{\numberline {4.3}{\ignorespaces Example of a MMTK trajectory set file}}{21}}
\newlabel{fig:trajectory_set}{{4.3}{21}}
\citation{Amber}
\@writefile{toc}{\contentsline {subsection}{\numberline {4.1.2}Trajectory conversion}{22}}
\newlabel{trajectory_conversion}{{4.1.2}{22}}
\@writefile{toc}{\contentsline {subsubsection}{\numberline {4.1.2.1}Amber to MMTK}{22}}
\newlabel{amber_to_mmtk}{{4.1.2.1}{22}}
\citation{CHARMM}
\citation{X-PLOR}
\@writefile{lof}{\contentsline {figure}{\numberline {4.4}{\ignorespaces The Amber to MMTK converter dialog}}{23}}
\newlabel{fig:amber_converter}{{4.4}{23}}
\@writefile{toc}{\contentsline {subsubsection}{\numberline {4.1.2.2}CHARMM/X-PLOR to MMTK}{23}}
\newlabel{charmm_to_mmtk}{{4.1.2.2}{23}}
\citation{DL_POLY}
\@writefile{lof}{\contentsline {figure}{\numberline {4.5}{\ignorespaces The CHARMM to MMTK converter dialog}}{24}}
\newlabel{fig:charmm_converter}{{4.5}{24}}
\@writefile{toc}{\contentsline {subsubsection}{\numberline {4.1.2.3}DL\_POLY to MMTK}{24}}
\newlabel{dlpoly_to_mmtk}{{4.1.2.3}{24}}
\@writefile{lof}{\contentsline {figure}{\numberline {4.6}{\ignorespaces The DL\_POLY to MMTK converter dialog}}{25}}
\newlabel{fig:dlpoly_converter}{{4.6}{25}}
\citation{Discover}
\@writefile{lof}{\contentsline {figure}{\numberline {4.7}{\ignorespaces Example of a DL\_POLY/FIELD file}}{26}}
\newlabel{fig:dlpoly_field_example}{{4.7}{26}}
\@writefile{toc}{\contentsline {subsubsection}{\numberline {4.1.2.4}Discover to MMTK}{26}}
\newlabel{discover_to_mmtk}{{4.1.2.4}{26}}
\@writefile{lof}{\contentsline {figure}{\numberline {4.8}{\ignorespaces The Discover to MMTK converter dialog}}{27}}
\newlabel{fig:discover_converter}{{4.8}{27}}
\citation{Forcite}
\@writefile{toc}{\contentsline {subsubsection}{\numberline {4.1.2.5}Forcite to MMTK}{28}}
\newlabel{forcite_to_mmtk}{{4.1.2.5}{28}}
\@writefile{lof}{\contentsline {figure}{\numberline {4.9}{\ignorespaces The Forcite to MMTK converter dialog}}{28}}
\newlabel{fig:forcite_converter}{{4.9}{28}}
\citation{NAMD}
\@writefile{toc}{\contentsline {subsubsection}{\numberline {4.1.2.6}NAMD to MMTK}{29}}
\newlabel{namd_to_mmtk}{{4.1.2.6}{29}}
\citation{VASP}
\@writefile{lof}{\contentsline {figure}{\numberline {4.10}{\ignorespaces The NAMD to MMTK converter dialog}}{30}}
\newlabel{fig:namd_converter}{{4.10}{30}}
\@writefile{toc}{\contentsline {subsubsection}{\numberline {4.1.2.7}VASP to MMTK}{30}}
\newlabel{vasp_to_mmtk}{{4.1.2.7}{30}}
\@writefile{lof}{\contentsline {figure}{\numberline {4.11}{\ignorespaces The VASP to MMTK converter dialog}}{31}}
\newlabel{fig:vasp_converter}{{4.11}{31}}
\@writefile{toc}{\contentsline {subsection}{\numberline {4.1.3}Frame snapshot}{32}}
\newlabel{frame_snapshot}{{4.1.3}{32}}
\@writefile{lof}{\contentsline {figure}{\numberline {4.12}{\ignorespaces The frame extraction dialog}}{32}}
\newlabel{fig:frame_snapshot}{{4.12}{32}}
\citation{CDL}
\citation{ncdump}
\@writefile{toc}{\contentsline {subsection}{\numberline {4.1.4}Convert NetCDF to ASCII}{33}}
\newlabel{convert_netcdf_ascii}{{4.1.4}{33}}
\@writefile{lof}{\contentsline {figure}{\numberline {4.13}{\ignorespaces The NetCDF to ASCII conversion dialog}}{33}}
\newlabel{fig:convert_netcdf_ascii}{{4.13}{33}}
\@writefile{toc}{\contentsline {subsection}{\numberline {4.1.5}Convert ASCII to NetCDF}{34}}
\newlabel{convert_ascii_netcdf}{{4.1.5}{34}}
\citation{ncgen}
\citation{CDL}
\newlabel{fig:convert_ascii_netcdf}{{4.1.5}{35}}
\@writefile{lof}{\contentsline {figure}{\numberline {4.14}{\ignorespaces The ASCII to NetCDF conversion dialog}}{35}}
\citation{ConfigParser}
\@writefile{lof}{\contentsline {figure}{\numberline {4.15}{\ignorespaces Example of an ASCII file that can be converted to a NetCDF file}}{36}}
\newlabel{fig:convert_ascii_netcdf_example}{{4.15}{36}}
\@writefile{toc}{\contentsline {subsection}{\numberline {4.1.6}Preferences}{36}}
\newlabel{preferences}{{4.1.6}{36}}
\@writefile{lof}{\contentsline {figure}{\numberline {4.16}{\ignorespaces The Preferences dialog}}{37}}
\newlabel{fig:preferences_file_handling}{{4.16}{37}}
\@writefile{lof}{\contentsline {figure}{\numberline {4.17}{\ignorespaces The three preferences sections}}{37}}
\newlabel{fig:preferences_sections}{{4.17}{37}}
\citation{VMD}
\@writefile{lof}{\contentsline {figure}{\numberline {4.18}{\ignorespaces Example of a preferences file}}{41}}
\newlabel{fig:preferences_config_file_example}{{4.18}{41}}
\@writefile{toc}{\contentsline {subsection}{\numberline {4.1.7}Quit}{41}}
\newlabel{quit}{{4.1.7}{41}}
\@writefile{toc}{\contentsline {section}{\numberline {4.2}The \textbf  {Analysis} menu}{41}}
\newlabel{analysis_menu}{{4.2}{41}}
\@writefile{toc}{\contentsline {subsection}{\numberline {4.2.1}Weighting scheme}{42}}
\newlabel{weighting_scheme}{{4.2.1}{42}}
\newlabel{eq:equal}{{4.1}{42}}
\newlabel{eq:mass}{{4.2}{42}}
\newlabel{eq:atomic_number}{{4.3}{42}}
\newlabel{eq:incoherent}{{4.4}{42}}
\newlabel{eq:coherent}{{4.5}{42}}
\newlabel{eq:equal_specie}{{4.9}{42}}
\newlabel{eq:mass_specie}{{4.10}{42}}
\newlabel{eq:atomic_number_specie}{{4.11}{43}}
\newlabel{eq:incoherent_specie}{{4.12}{43}}
\newlabel{eq:coherent_specie}{{4.13}{43}}
\@writefile{toc}{\contentsline {subsection}{\numberline {4.2.2}Atom selection}{43}}
\newlabel{atom_selection}{{4.2.2}{43}}
\@writefile{toc}{\contentsline {subsubsection}{\numberline {4.2.2.1}Subset selection}{43}}
\newlabel{subset_selection}{{4.2.2.1}{43}}
\@writefile{lof}{\contentsline {figure}{\numberline {4.19}{\ignorespaces The subset selection dialog}}{44}}
\newlabel{fig:subset_selection}{{4.19}{44}}
\newlabel{subset_selection_from_a_selection_file}{{4.2.2.1}{44}}
\@writefile{toc}{\contentsline {paragraph}{selection from a selection file\\}{44}}
\@writefile{lof}{\contentsline {figure}{\numberline {4.20}{\ignorespaces The subset selection dialog for a selection from a selection file}}{45}}
\newlabel{fig:subset_selection_from_a_selection_file}{{4.20}{45}}
\@writefile{lof}{\contentsline {figure}{\numberline {4.21}{\ignorespaces Example of a subset selection file}}{45}}
\newlabel{fig:subset_selection_file}{{4.21}{45}}
\@writefile{toc}{\contentsline {paragraph}{selection from the loaded trajectory\\}{45}}
\@writefile{lof}{\contentsline {figure}{\numberline {4.22}{\ignorespaces The subset selection dialog for a selection from the loaded trajectory}}{46}}
\newlabel{fig:subset_selection_from_the_loaded_trajectory}{{4.22}{46}}
\@writefile{lot}{\contentsline {table}{\numberline {4.1}{\ignorespaces Selection keywords available in \textit  {n}MOLDYN}}{47}}
\newlabel{tab:selection_keywords}{{4.1}{47}}
\@writefile{toc}{\contentsline {paragraph}{selection from an expression string\\}{48}}
\@writefile{lof}{\contentsline {figure}{\numberline {4.23}{\ignorespaces The subset selection dialog for a selection from an expression string}}{48}}
\newlabel{fig:subset_selection_from_an_expression_string}{{4.23}{48}}
\@writefile{toc}{\contentsline {subsubsection}{\numberline {4.2.2.2}Deuteration selection}{49}}
\newlabel{deuteration_selection}{{4.2.2.2}{49}}
\@writefile{lof}{\contentsline {figure}{\numberline {4.24}{\ignorespaces The deuteration selection dialog}}{49}}
\newlabel{fig:deuteration_selection}{{4.24}{49}}
\newlabel{deuteration_selection_from_a_selection_file}{{4.2.2.2}{49}}
\@writefile{toc}{\contentsline {paragraph}{selection from a selection file\\}{49}}
\@writefile{lof}{\contentsline {figure}{\numberline {4.25}{\ignorespaces The deuteration selection dialog for a selection from a selection file}}{50}}
\newlabel{fig:deuteration_selection_from_a_selection_file}{{4.25}{50}}
\@writefile{lof}{\contentsline {figure}{\numberline {4.26}{\ignorespaces Example of a deuteration selection file}}{50}}
\newlabel{fig:deuteration_selection_file}{{4.26}{50}}
\@writefile{toc}{\contentsline {paragraph}{selection from the loaded trajectory\\}{51}}
\@writefile{lof}{\contentsline {figure}{\numberline {4.27}{\ignorespaces The deuteration selection dialog for a selection from the loaded trajectory}}{51}}
\newlabel{fig:deuteration_selection_from_the_loaded_trajectory}{{4.27}{51}}
\@writefile{toc}{\contentsline {paragraph}{selection from an expression string\\}{52}}
\@writefile{lof}{\contentsline {figure}{\numberline {4.28}{\ignorespaces The deuteration selection dialog for a selection from an expression string}}{52}}
\newlabel{fig:deuteration_selection_from_an_expression_string}{{4.28}{52}}
\@writefile{toc}{\contentsline {subsubsection}{\numberline {4.2.2.3}Group selection}{53}}
\newlabel{group_selection}{{4.2.2.3}{53}}
\@writefile{lof}{\contentsline {figure}{\numberline {4.29}{\ignorespaces The group selection dialog}}{53}}
\newlabel{fig:group_selection}{{4.29}{53}}
\newlabel{group_selection_from_a_selection_file}{{4.2.2.3}{54}}
\@writefile{toc}{\contentsline {paragraph}{selection from a selection file\\}{54}}
\@writefile{lof}{\contentsline {figure}{\numberline {4.30}{\ignorespaces The group selection dialog for a selection from a selection file}}{54}}
\newlabel{fig:group_selection_from_a_selection_file}{{4.30}{54}}
\@writefile{lof}{\contentsline {figure}{\numberline {4.31}{\ignorespaces Example of a group selection file}}{54}}
\newlabel{fig:group_selection_file}{{4.31}{54}}
\@writefile{toc}{\contentsline {paragraph}{selection from the loaded trajectory\\}{55}}
\@writefile{lof}{\contentsline {figure}{\numberline {4.32}{\ignorespaces The group selection dialog for a selection from the loaded trajectory}}{55}}
\newlabel{fig:group_selection_from_the_loaded_trajectory}{{4.32}{55}}
\@writefile{toc}{\contentsline {paragraph}{selection from an expression string\\}{56}}
\@writefile{lof}{\contentsline {figure}{\numberline {4.33}{\ignorespaces The group selection dialog for a selection from an expression string}}{57}}
\newlabel{fig:group_selection_from_an_expression_string}{{4.33}{57}}
\@writefile{toc}{\contentsline {subsection}{\numberline {4.2.3}Running modes}{57}}
\newlabel{running_modes}{{4.2.3}{57}}
\citation{Democritus}
\@writefile{toc}{\contentsline {subsection}{\numberline {4.2.4}The Dynamics menu}{58}}
\newlabel{dynamics_menu}{{4.2.4}{58}}
\@writefile{toc}{\contentsline {subsubsection}{\numberline {4.2.4.1}Mean-Square Displacement}{58}}
\newlabel{msd}{{4.2.4.1}{58}}
\newlabel{msd_theory}{{4.2.4.1}{58}}
\@writefile{toc}{\contentsline {paragraph}{Theory and implementation\\}{58}}
\citation{Yip:1980}
\@writefile{lof}{\contentsline {figure}{\numberline {4.34}{\ignorespaces Examples of calculated \textit  {MSD} with \textit  {n}MOLDYN}}{59}}
\newlabel{fig:msd_water}{{4.34}{59}}
\newlabel{eq:msd}{{4.16}{59}}
\newlabel{eq:msd_n}{{4.17}{59}}
\newlabel{eq:diffusion_coeff}{{4.19}{59}}
\newlabel{eq:msd_vacf}{{4.20}{59}}
\citation{Kneller:KFA}
\newlabel{eq:d_vacf}{{4.21}{60}}
\newlabel{eq:d_dos}{{4.22}{60}}
\newlabel{eq:msd_discrete}{{4.23}{60}}
\newlabel{msd_parameters}{{4.2.4.1}{61}}
\@writefile{toc}{\contentsline {paragraph}{Parameters\\}{61}}
\@writefile{lof}{\contentsline {figure}{\numberline {4.35}{\ignorespaces The \textit  {MSD} analysis dialog}}{61}}
\newlabel{fig:msd}{{4.35}{61}}
\@writefile{toc}{\contentsline {paragraph}{Output\\}{62}}
\@writefile{toc}{\contentsline {subsubsection}{\numberline {4.2.4.2}Root Mean-Square Deviation}{63}}
\newlabel{rmsd}{{4.2.4.2}{63}}
\newlabel{rmsd_theory}{{4.2.4.2}{63}}
\@writefile{toc}{\contentsline {paragraph}{Theory and implementation\\}{63}}
\newlabel{eq:rmsd}{{4.30}{63}}
\newlabel{eq:rmsd_num}{{4.31}{63}}
\newlabel{rmsd_parameters}{{4.2.4.2}{63}}
\@writefile{toc}{\contentsline {paragraph}{Parameters\\}{63}}
\@writefile{lof}{\contentsline {figure}{\numberline {4.36}{\ignorespaces The \textit  {RMSD} analysis dialog}}{64}}
\newlabel{fig:rmsd}{{4.36}{64}}
\@writefile{toc}{\contentsline {paragraph}{Output\\}{65}}
\@writefile{toc}{\contentsline {subsubsection}{\numberline {4.2.4.3}Radius of gyration}{65}}
\newlabel{rog}{{4.2.4.3}{65}}
\newlabel{rog_theory}{{4.2.4.3}{65}}
\@writefile{toc}{\contentsline {paragraph}{Theory and implementation\\}{65}}
\newlabel{eq:rog}{{4.32}{65}}
\newlabel{eq:rog_num}{{4.33}{65}}
\newlabel{rog_parameters}{{4.2.4.3}{66}}
\@writefile{toc}{\contentsline {paragraph}{Parameters\\}{66}}
\@writefile{lof}{\contentsline {figure}{\numberline {4.37}{\ignorespaces The \textit  {ROG} analysis dialog}}{66}}
\newlabel{fig:rog}{{4.37}{66}}
\@writefile{toc}{\contentsline {paragraph}{Output\\}{67}}
\@writefile{toc}{\contentsline {subsubsection}{\numberline {4.2.4.4}Angular Correlation}{67}}
\newlabel{ac}{{4.2.4.4}{67}}
\newlabel{ac_theory}{{4.2.4.4}{67}}
\@writefile{toc}{\contentsline {paragraph}{Theory and implementation\\}{67}}
\newlabel{eq:ac_per_triplet}{{4.34}{67}}
\newlabel{eq:ac}{{4.35}{68}}
\newlabel{ac_parameters}{{4.2.4.4}{68}}
\@writefile{toc}{\contentsline {paragraph}{Parameters\\}{68}}
\@writefile{lof}{\contentsline {figure}{\numberline {4.38}{\ignorespaces The \textit  {AC} analysis dialog}}{68}}
\newlabel{fig:ac}{{4.38}{68}}
\@writefile{toc}{\contentsline {paragraph}{Output\\}{70}}
\@writefile{toc}{\contentsline {subsubsection}{\numberline {4.2.4.5}Velocity Autocorrelation Function}{70}}
\newlabel{vacf}{{4.2.4.5}{70}}
\newlabel{vacf_theory}{{4.2.4.5}{70}}
\@writefile{toc}{\contentsline {paragraph}{Theory and implementation\\}{70}}
\newlabel{eq:vacf}{{4.36}{70}}
\newlabel{eq:vacf_n}{{4.37}{70}}
\citation{Abramowitz}
\newlabel{eq:sqw_dos}{{4.39}{71}}
\newlabel{eq:dos}{{4.40}{71}}
\newlabel{eq:dos_alpha}{{4.41}{71}}
\newlabel{vacf_parameters}{{4.2.4.5}{71}}
\@writefile{toc}{\contentsline {paragraph}{Parameters\\}{71}}
\@writefile{lof}{\contentsline {figure}{\numberline {4.39}{\ignorespaces The \textit  {VACF} analysis dialog}}{72}}
\newlabel{fig:vacf}{{4.39}{72}}
\@writefile{toc}{\contentsline {paragraph}{Output\\}{73}}
\citation{Harris}
\@writefile{toc}{\contentsline {subsubsection}{\numberline {4.2.4.6}Density Of States}{74}}
\newlabel{dos}{{4.2.4.6}{74}}
\newlabel{dos_theory}{{4.2.4.6}{74}}
\@writefile{toc}{\contentsline {paragraph}{Theory and implementation\\}{74}}
\newlabel{dos_parameters}{{4.2.4.6}{74}}
\@writefile{toc}{\contentsline {paragraph}{Parameters\\}{74}}
\citation{Abramowitz}
\@writefile{lof}{\contentsline {figure}{\numberline {4.40}{\ignorespaces The \textit  {DOS} analysis dialog}}{75}}
\newlabel{fig:dos}{{4.40}{75}}
\@writefile{toc}{\contentsline {paragraph}{Output\\}{76}}
\@writefile{toc}{\contentsline {subsubsection}{\numberline {4.2.4.7}Pass-Band Filtered Trajectory}{76}}
\newlabel{pbft}{{4.2.4.7}{76}}
\newlabel{pbft_theory}{{4.2.4.7}{76}}
\@writefile{toc}{\contentsline {paragraph}{Theory and implementation\\}{76}}
\newlabel{pbft_parameters}{{4.2.4.7}{77}}
\@writefile{toc}{\contentsline {paragraph}{Parameters\\}{77}}
\@writefile{lof}{\contentsline {figure}{\numberline {4.41}{\ignorespaces The \textit  {PBFT} analysis dialog}}{77}}
\newlabel{fig:pbft}{{4.41}{77}}
\@writefile{toc}{\contentsline {paragraph}{Output\\}{79}}
\@writefile{toc}{\contentsline {subsubsection}{\numberline {4.2.4.8}Global Motion Filtered Trajectory}{79}}
\newlabel{gmft}{{4.2.4.8}{79}}
\newlabel{gmft_theory}{{4.2.4.8}{79}}
\@writefile{toc}{\contentsline {paragraph}{Theory and implementation\\}{79}}
\newlabel{gmft_parameters}{{4.2.4.8}{79}}
\@writefile{toc}{\contentsline {paragraph}{Parameters\\}{79}}
\@writefile{lof}{\contentsline {figure}{\numberline {4.42}{\ignorespaces The \textit  {GMFT} analysis dialog}}{80}}
\newlabel{fig:gmft}{{4.42}{80}}
\citation{Berendsen}
\citation{Kneller:1991}
\citation{Altmann}
\@writefile{toc}{\contentsline {paragraph}{Output\\}{81}}
\@writefile{toc}{\contentsline {subsubsection}{\numberline {4.2.4.9}Rigid-Body Trajectory}{81}}
\newlabel{rbt}{{4.2.4.9}{81}}
\newlabel{rbt_theory}{{4.2.4.9}{81}}
\@writefile{toc}{\contentsline {paragraph}{Theory and implementation\\}{81}}
\@writefile{toc}{\contentsline {subparagraph}{Optimal superposition.}{81}}
\newlabel{eq:delta}{{4.45}{81}}
\citation{Altmann}
\newlabel{eq:minimize_rot}{{4.49}{82}}
\newlabel{eq:d_quat}{{4.52}{82}}
\@writefile{toc}{\contentsline {subparagraph}{Quaternions and rotations.}{82}}
\newlabel{eq:a_mat}{{4.54}{82}}
\citation{Kneller:1991}
\@writefile{toc}{\contentsline {subparagraph}{Solution of the minimization problem.}{83}}
\newlabel{eq:minimize_rot_quat_1}{{4.60}{83}}
\newlabel{eq:minimize_rot_quat_2}{{4.61}{83}}
\newlabel{eq:quad_form}{{4.62}{83}}
\newlabel{rbt_parameters}{{4.2.4.9}{83}}
\@writefile{toc}{\contentsline {paragraph}{Parameters\\}{83}}
\@writefile{lof}{\contentsline {figure}{\numberline {4.43}{\ignorespaces The \textit  {RBT} analysis dialog}}{84}}
\newlabel{fig:rbt}{{4.43}{84}}
\@writefile{toc}{\contentsline {paragraph}{Output\\}{85}}
\@writefile{toc}{\contentsline {subsubsection}{\numberline {4.2.4.10}Center Of Mass Trajectory}{85}}
\newlabel{comt}{{4.2.4.10}{85}}
\newlabel{comt_theory}{{4.2.4.10}{85}}
\@writefile{toc}{\contentsline {paragraph}{Theory and implementation\\}{85}}
\newlabel{comt_parameters}{{4.2.4.10}{86}}
\@writefile{toc}{\contentsline {paragraph}{Parameters\\}{86}}
\@writefile{lof}{\contentsline {figure}{\numberline {4.44}{\ignorespaces The \textit  {COMT} analysis dialog}}{86}}
\newlabel{fig:comt}{{4.44}{86}}
\citation{Hinsen:2001}
\citation{Papoulis:1991}
\citation{Makhoul:1975}
\citation{Burg}
\citation{Makhoul:1977}
\@writefile{toc}{\contentsline {paragraph}{Output\\}{87}}
\@writefile{toc}{\contentsline {subsubsection}{\numberline {4.2.4.11}Auto-Regressive Analysis}{87}}
\newlabel{ara}{{4.2.4.11}{87}}
\newlabel{ara_theory}{{4.2.4.11}{87}}
\@writefile{toc}{\contentsline {paragraph}{Theory and implementation\\}{87}}
\newlabel{eq:ar}{{4.68}{87}}
\citation{Burg}
\citation{Makhoul:1977}
\@writefile{toc}{\contentsline {subparagraph}{VACF within the AR model}{88}}
\newlabel{eq:memory_function_equation}{{4.72}{88}}
\newlabel{eq:vacf_ar}{{4.73}{88}}
\newlabel{eq:p_z}{{4.74}{88}}
\newlabel{eq:psi_n}{{4.75}{88}}
\newlabel{eq:beta_j}{{4.76}{88}}
\newlabel{eq:stability}{{4.77}{88}}
\@writefile{toc}{\contentsline {subparagraph}{Density of states within the AR model}{88}}
\@writefile{toc}{\contentsline {subparagraph}{Discrete memory function of the VACF within the AR model}{89}}
\newlabel{eq:memory_function_discrete}{{4.79}{89}}
\newlabel{eq:xi_z}{{4.81}{89}}
\newlabel{eq:m_t}{{4.82}{89}}
\newlabel{eq:xi_division}{{4.83}{89}}
\citation{Hinsen:2001}
\@writefile{toc}{\contentsline {subparagraph}{MSD within the AR model}{90}}
\newlabel{eq:msd_vacf_x}{{4.84}{90}}
\newlabel{eq:msd_vacf_x_discrete_1}{{4.85}{90}}
\newlabel{eq:msd_vacf_x_discrete_2}{{4.87}{90}}
\newlabel{eq:msd_vacf_x_discrete_2_Z}{{4.88}{90}}
\newlabel{eq:f1z}{{4.89}{90}}
\newlabel{msd_z}{{4.90}{90}}
\newlabel{inv_Z}{{4.91}{90}}
\@writefile{toc}{\contentsline {subparagraph}{Friction coefficient within the AR model}{91}}
\newlabel{eq:xi_0}{{4.96}{91}}
\newlabel{eq:psi_ar_z}{{4.97}{91}}
\newlabel{eq:xi_ar_z}{{4.98}{91}}
\newlabel{eq:xi_0_2}{{4.99}{91}}
\newlabel{ara_parameters}{{4.2.4.11}{91}}
\@writefile{toc}{\contentsline {paragraph}{Parameters\\}{91}}
\citation{Abramowitz}
\@writefile{lof}{\contentsline {figure}{\numberline {4.45}{\ignorespaces The \textit  {ARA} analysis dialog}}{92}}
\newlabel{fig:ara}{{4.45}{92}}
\@writefile{toc}{\contentsline {paragraph}{Output\\}{94}}
\@writefile{toc}{\contentsline {subsubsection}{\numberline {4.2.4.12}Quasi Harmonic Analysis}{94}}
\newlabel{qha}{{4.2.4.12}{94}}
\newlabel{qha_theory}{{4.2.4.12}{94}}
\@writefile{toc}{\contentsline {paragraph}{Theory and implementation\\}{94}}
\newlabel{eq:qha}{{4.102}{94}}
\newlabel{eq:qha_omega}{{4.104}{95}}
\newlabel{eq:qha_dx}{{4.105}{95}}
\newlabel{eq:qha_lci}{{4.106}{95}}
\newlabel{eq:qha_gci}{{4.107}{95}}
\newlabel{eq:qha_at}{{4.108}{95}}
\citation{Karplus}
\newlabel{eq:qha_trajectory}{{4.109}{96}}
\newlabel{qha_parameters}{{4.2.4.12}{96}}
\@writefile{toc}{\contentsline {paragraph}{Parameters\\}{96}}
\@writefile{lof}{\contentsline {figure}{\numberline {4.46}{\ignorespaces The \textit  {QHA} analysis dialog}}{96}}
\newlabel{fig:qha}{{4.46}{96}}
\@writefile{toc}{\contentsline {paragraph}{Output\\}{97}}
\citation{Stone}
\citation{Edmonds}
\citation{Satchler}
\citation{Edmonds}
\citation{Satchler}
\@writefile{toc}{\contentsline {subsubsection}{\numberline {4.2.4.13}Reorientational Correlation Function}{98}}
\newlabel{rcf}{{4.2.4.13}{98}}
\newlabel{rcf_theory}{{4.2.4.13}{98}}
\@writefile{toc}{\contentsline {paragraph}{Theory and implementation\\}{98}}
\newlabel{eq:p_expansion}{{4.110}{98}}
\newlabel{eq:d_ortho}{{4.111}{98}}
\newlabel{eq:p_coeff_p}{{4.112}{98}}
\newlabel{eq:tt_t_correl}{{4.115}{98}}
\citation{Edmonds}
\citation{Satchler}
\citation{Rose}
\newlabel{eq:p_tt}{{4.118}{99}}
\newlabel{eq:y_d}{{4.119}{99}}
\newlabel{eq:wig_q}{{4.120}{99}}
\newlabel{eq:y_q}{{4.121}{99}}
\newlabel{p_jmn_y}{{4.122}{99}}
\newlabel{eq:p_initial}{{4.123}{99}}
\newlabel{eq:p_cc}{{4.124}{99}}
\newlabel{rcf_parameters}{{4.2.4.13}{100}}
\@writefile{toc}{\contentsline {paragraph}{Parameters\\}{100}}
\@writefile{lof}{\contentsline {figure}{\numberline {4.47}{\ignorespaces The \textit  {RCF} analysis dialog}}{100}}
\newlabel{fig:rcf}{{4.47}{100}}
\@writefile{toc}{\contentsline {paragraph}{Output\\}{101}}
\citation{Smith:1992}
\citation{Tildesley}
\citation{Smith:1992}
\@writefile{toc}{\contentsline {subsubsection}{\numberline {4.2.4.14}Angular Velocity AutoCorrelation Function}{102}}
\newlabel{avacf}{{4.2.4.14}{102}}
\newlabel{avacf_theory}{{4.2.4.14}{102}}
\@writefile{toc}{\contentsline {paragraph}{Theory and implementation\\}{102}}
\newlabel{eq:c_omgomg}{{4.125}{102}}
\newlabel{eq:omega_prime_quat_dot)}{{4.126}{102}}
\newlabel{phi_omega}{{4.127}{102}}
\newlabel{avacf_parameters}{{4.2.4.14}{102}}
\@writefile{toc}{\contentsline {paragraph}{Parameters\\}{102}}
\citation{Abramowitz}
\@writefile{lof}{\contentsline {figure}{\numberline {4.48}{\ignorespaces The \textit  {AVACF} analysis dialog}}{103}}
\newlabel{fig:avacf}{{4.48}{103}}
\@writefile{toc}{\contentsline {paragraph}{Output\\}{104}}
\@writefile{toc}{\contentsline {subsubsection}{\numberline {4.2.4.15}Angular Density Of States}{104}}
\newlabel{ados}{{4.2.4.15}{104}}
\newlabel{ados_theory}{{4.2.4.15}{104}}
\@writefile{toc}{\contentsline {paragraph}{Theory and implementation\\}{104}}
\newlabel{ados_parameters}{{4.2.4.15}{105}}
\@writefile{toc}{\contentsline {paragraph}{Parameters\\}{105}}
\@writefile{lof}{\contentsline {figure}{\numberline {4.49}{\ignorespaces The \textit  {ADOS} analysis dialog}}{105}}
\newlabel{fig:ados}{{4.49}{105}}
\citation{Abramowitz}
\citation{Lovesey}
\@writefile{toc}{\contentsline {paragraph}{Output\\}{107}}
\@writefile{toc}{\contentsline {subsection}{\numberline {4.2.5}The Scattering menu}{107}}
\newlabel{scattering_menu}{{4.2.5}{107}}
\citation{VanHove}
\@writefile{toc}{\contentsline {subsubsection}{\numberline {4.2.5.1}Introduction\\}{108}}
\newlabel{scattering_introduction}{{4.2.5.1}{108}}
\newlabel{eq:sqw_1}{{4.130}{108}}
\newlabel{eq:sqw_2}{{4.134}{108}}
\newlabel{eq:fqt}{{4.135}{108}}
\newlabel{eq:gamma}{{4.136}{108}}
\citation{Schofield}
\citation{Kneller:1994}
\newlabel{eq:fcoh}{{4.141}{109}}
\newlabel{eq:finc}{{4.142}{109}}
\newlabel{eq:sq}{{4.145}{109}}
\newlabel{eq:detbal}{{4.146}{109}}
\newlabel{eq:moments}{{4.147}{109}}
\newlabel{eq:recoil}{{4.148}{109}}
\newlabel{eq:detbal_corr}{{4.149}{110}}
\@writefile{toc}{\contentsline {subsubsection}{\numberline {4.2.5.2}Dynamic Coherent Structure Factor}{110}}
\newlabel{dcsf}{{4.2.5.2}{110}}
\newlabel{dcsf_theory}{{4.2.5.2}{110}}
\@writefile{toc}{\contentsline {paragraph}{Theory and implementation\\}{110}}
\newlabel{eq:fqt_coh_num}{{4.150}{110}}
\newlabel{eq:dcsf_rho}{{4.151}{110}}
\newlabel{eq:q_dual}{{4.154}{110}}
\citation{Lovesey}
\newlabel{dcsf_parameters}{{4.2.5.2}{112}}
\@writefile{toc}{\contentsline {paragraph}{Parameters\\}{112}}
\@writefile{lof}{\contentsline {figure}{\numberline {4.50}{\ignorespaces The \textit  {DCSF} analysis dialog}}{112}}
\newlabel{fig:dcsf}{{4.50}{112}}
\@writefile{toc}{\contentsline {paragraph}{Output\\}{115}}
\@writefile{toc}{\contentsline {subsubsection}{\numberline {4.2.5.3}Dynamic Coherent Structure Factor (AR Model)}{115}}
\newlabel{dcsfar}{{4.2.5.3}{115}}
\newlabel{dcsfar_theory}{{4.2.5.3}{115}}
\@writefile{toc}{\contentsline {paragraph}{Theory and implementation\\}{115}}
\newlabel{eq:mem_fcoh}{{4.156}{115}}
\newlabel{eq:dcsfar_rho}{{4.158}{116}}
\newlabel{dcsfar_parameters}{{4.2.5.3}{117}}
\@writefile{toc}{\contentsline {paragraph}{Parameters\\}{117}}
\@writefile{lof}{\contentsline {figure}{\numberline {4.51}{\ignorespaces The \textit  {DCSFAR} analysis dialog}}{117}}
\newlabel{fig:dcsfar}{{4.51}{117}}
\@writefile{toc}{\contentsline {paragraph}{Output\\}{120}}
\@writefile{toc}{\contentsline {subsubsection}{\numberline {4.2.5.4}Dynamic Incoherent Structure Factor}{120}}
\newlabel{disf}{{4.2.5.4}{120}}
\newlabel{disf_theory}{{4.2.5.4}{120}}
\@writefile{toc}{\contentsline {paragraph}{Theory and implementation\\}{120}}
\newlabel{eq:disf_rho}{{4.160}{121}}
\newlabel{eq:q_dual}{{4.163}{121}}
\newlabel{disf_parameters}{{4.2.5.4}{121}}
\@writefile{toc}{\contentsline {paragraph}{Parameters\\}{121}}
\@writefile{lof}{\contentsline {figure}{\numberline {4.52}{\ignorespaces The \textit  {DISF} analysis dialog}}{122}}
\newlabel{fig:disf}{{4.52}{122}}
\@writefile{toc}{\contentsline {paragraph}{Output\\}{125}}
\@writefile{toc}{\contentsline {subsubsection}{\numberline {4.2.5.5}Dynamic Incoherent Structure Factor (AR Model)}{125}}
\newlabel{disfar}{{4.2.5.5}{125}}
\newlabel{disfar_theory}{{4.2.5.5}{125}}
\@writefile{toc}{\contentsline {paragraph}{Theory and implementation\\}{125}}
\newlabel{eq:mem_finc}{{4.164}{125}}
\newlabel{eq:disfar_rho}{{4.165}{125}}
\newlabel{disfar_parameters}{{4.2.5.5}{126}}
\@writefile{toc}{\contentsline {paragraph}{Parameters\\}{126}}
\@writefile{lof}{\contentsline {figure}{\numberline {4.53}{\ignorespaces The \textit  {DISFAR} analysis dialog}}{127}}
\newlabel{fig:disfar}{{4.53}{127}}
\@writefile{toc}{\contentsline {paragraph}{Output\\}{129}}
\citation{Rahman:1962}
\citation{Yip:1980}
\@writefile{toc}{\contentsline {subsubsection}{\numberline {4.2.5.6}Dynamic Incoherent Structure Factor (Gaussian Approximation)}{130}}
\newlabel{disfg}{{4.2.5.6}{130}}
\newlabel{disfg_theory}{{4.2.5.6}{130}}
\@writefile{toc}{\contentsline {paragraph}{Theory and implementation\\}{130}}
\newlabel{eq:fqt_cumulant}{{4.167}{130}}
\newlabel{eq:fqt_cumulant_1}{{4.168}{130}}
\newlabel{disfg_parameters}{{4.2.5.6}{131}}
\@writefile{toc}{\contentsline {paragraph}{Parameters\\}{131}}
\@writefile{lof}{\contentsline {figure}{\numberline {4.54}{\ignorespaces The \textit  {DISFG} analysis dialog}}{131}}
\newlabel{fig:disfg}{{4.54}{131}}
\citation{Lovesey}
\@writefile{toc}{\contentsline {paragraph}{Output\\}{133}}
\@writefile{toc}{\contentsline {subsubsection}{\numberline {4.2.5.7}Elastic Incoherent Structure Factor}{133}}
\newlabel{eisf}{{4.2.5.7}{133}}
\newlabel{eisf_theory}{{4.2.5.7}{133}}
\@writefile{toc}{\contentsline {paragraph}{Theory and implementation\\}{133}}
\newlabel{eq:eisf}{{4.174}{133}}
\citation{Smith:1992}
\newlabel{eq:eisf_g_s}{{4.178}{134}}
\newlabel{eq:eisf_compute}{{4.179}{134}}
\newlabel{eisf_rho}{{4.180}{134}}
\newlabel{eq:eisf_q_average}{{4.183}{134}}
\newlabel{eisf_parameters}{{4.2.5.7}{135}}
\@writefile{toc}{\contentsline {paragraph}{Parameters\\}{135}}
\@writefile{lof}{\contentsline {figure}{\numberline {4.55}{\ignorespaces The \textit  {EISF} analysis dialog}}{135}}
\newlabel{fig:eisf}{{4.55}{135}}
\@writefile{toc}{\contentsline {paragraph}{Output\\}{138}}
\@writefile{toc}{\contentsline {subsubsection}{\numberline {4.2.5.8}Static Coherent Structure Factor}{138}}
\newlabel{scsf}{{4.2.5.8}{138}}
\newlabel{scsf_theory}{{4.2.5.8}{138}}
\@writefile{toc}{\contentsline {paragraph}{Theory and implementation\\}{138}}
\newlabel{scsf_parameters}{{4.2.5.8}{138}}
\@writefile{toc}{\contentsline {paragraph}{Parameters\\}{138}}
\@writefile{lof}{\contentsline {figure}{\numberline {4.56}{\ignorespaces The \textit  {SCSF} analysis dialog}}{139}}
\newlabel{fig:scsf}{{4.56}{139}}
\@writefile{toc}{\contentsline {paragraph}{Output\\}{141}}
\citation{Salmon}
\@writefile{toc}{\contentsline {subsubsection}{\numberline {4.2.5.9}Smoothed Static Coherent Structure Factor}{142}}
\newlabel{sscsf}{{4.2.5.9}{142}}
\newlabel{sscsf_theory}{{4.2.5.9}{142}}
\@writefile{toc}{\contentsline {paragraph}{Theory and implementation\\}{142}}
\newlabel{sscsf_parameters}{{4.2.5.9}{142}}
\@writefile{toc}{\contentsline {paragraph}{Parameters\\}{142}}
\@writefile{lof}{\contentsline {figure}{\numberline {4.57}{\ignorespaces The \textit  {SSCSF} analysis dialog}}{143}}
\newlabel{fig:sscsf}{{4.57}{143}}
\@writefile{toc}{\contentsline {paragraph}{Output\\}{144}}
\@writefile{toc}{\contentsline {subsection}{\numberline {4.2.6}The Structure menu}{144}}
\newlabel{structure_menu}{{4.2.6}{144}}
\@writefile{toc}{\contentsline {subsubsection}{\numberline {4.2.6.1}Pair Distribution Function}{145}}
\newlabel{pdf}{{4.2.6.1}{145}}
\newlabel{pdf_theory}{{4.2.6.1}{145}}
\@writefile{toc}{\contentsline {paragraph}{Theory and implementation\\}{145}}
\newlabel{eq:gij}{{4.187}{145}}
\newlabel{pdf_parameters}{{4.2.6.1}{145}}
\@writefile{toc}{\contentsline {paragraph}{Parameters\\}{145}}
\@writefile{lof}{\contentsline {figure}{\numberline {4.58}{\ignorespaces The \textit  {PDF} analysis dialog}}{146}}
\newlabel{fig:pdf}{{4.58}{146}}
\@writefile{toc}{\contentsline {paragraph}{Output\\}{147}}
\@writefile{toc}{\contentsline {subsubsection}{\numberline {4.2.6.2}Coordination number}{148}}
\newlabel{cn}{{4.2.6.2}{148}}
\newlabel{cn_theory}{{4.2.6.2}{148}}
\@writefile{toc}{\contentsline {paragraph}{Theory and implementation\\}{148}}
\newlabel{eq:cn_total}{{4.192}{148}}
\newlabel{eq:cn_number}{{4.193}{148}}
\newlabel{cn_parameters}{{4.2.6.2}{148}}
\@writefile{toc}{\contentsline {paragraph}{Parameters\\}{148}}
\@writefile{lof}{\contentsline {figure}{\numberline {4.59}{\ignorespaces The \textit  {CN} analysis dialog}}{149}}
\newlabel{fig:cn}{{4.59}{149}}
\@writefile{toc}{\contentsline {paragraph}{Output\\}{151}}
\@writefile{toc}{\contentsline {subsubsection}{\numberline {4.2.6.3}Spatial Density}{152}}
\newlabel{sd}{{4.2.6.3}{152}}
\newlabel{sd_theory}{{4.2.6.3}{152}}
\@writefile{toc}{\contentsline {paragraph}{Theory and implementation\\}{152}}
\newlabel{eq:sd}{{4.194}{152}}
\newlabel{sd_parameters}{{4.2.6.3}{153}}
\@writefile{toc}{\contentsline {paragraph}{Parameters\\}{153}}
\@writefile{lof}{\contentsline {figure}{\numberline {4.60}{\ignorespaces The \textit  {SD} analysis dialog}}{153}}
\newlabel{fig:sd}{{4.60}{153}}
\citation{Calligari}
\@writefile{toc}{\contentsline {paragraph}{Output\\}{156}}
\@writefile{toc}{\contentsline {subsubsection}{\numberline {4.2.6.4}ScrewFit analysis}{156}}
\newlabel{sfa}{{4.2.6.4}{156}}
\newlabel{sfa_theory}{{4.2.6.4}{156}}
\@writefile{toc}{\contentsline {paragraph}{Theory and implementation\\}{156}}
\newlabel{sfa_parameters}{{4.2.6.4}{157}}
\@writefile{toc}{\contentsline {paragraph}{Parameters\\}{157}}
\@writefile{lof}{\contentsline {figure}{\numberline {4.61}{\ignorespaces The \textit  {SFA} analysis dialog}}{157}}
\newlabel{fig:sfa}{{4.61}{157}}
\citation{Refield}
\@writefile{toc}{\contentsline {paragraph}{Output\\}{158}}
\@writefile{toc}{\contentsline {subsection}{\numberline {4.2.7}The NMR menu}{158}}
\newlabel{nmr_menu}{{4.2.7}{158}}
\@writefile{toc}{\contentsline {subsubsection}{\numberline {4.2.7.1}Order Parameter}{158}}
\newlabel{op}{{4.2.7.1}{158}}
\newlabel{op_theory}{{4.2.7.1}{158}}
\@writefile{toc}{\contentsline {paragraph}{Theory and implementation\\}{158}}
\newlabel{eq:op_cii}{{4.195}{158}}
\citation{Szabo:1982}
\citation{Szabo:1982bis}
\newlabel{eq:op_cii_avg}{{4.198}{159}}
\newlabel{op_parameters}{{4.2.7.1}{159}}
\@writefile{toc}{\contentsline {paragraph}{Parameters\\}{159}}
\@writefile{lof}{\contentsline {figure}{\numberline {4.62}{\ignorespaces The \textit  {OP} analysis dialog}}{160}}
\newlabel{fig:op}{{4.62}{160}}
\citation{Bruschweiler}
\@writefile{toc}{\contentsline {paragraph}{Output\\}{161}}
\@writefile{toc}{\contentsline {subsubsection}{\numberline {4.2.7.2}Order Parameter (Contact Model)}{161}}
\newlabel{opcm}{{4.2.7.2}{161}}
\newlabel{opcm_theory}{{4.2.7.2}{161}}
\@writefile{toc}{\contentsline {paragraph}{Theory and implementation\\}{161}}
\newlabel{eq:opcm_s2i}{{4.199}{161}}
\newlabel{eq:opcm_s2i_avg}{{4.200}{161}}
\newlabel{opcm_parameters}{{4.2.7.2}{161}}
\@writefile{toc}{\contentsline {paragraph}{Parameters\\}{161}}
\@writefile{lof}{\contentsline {figure}{\numberline {4.63}{\ignorespaces The \textit  {OPCM} analysis dialog}}{162}}
\newlabel{fig:opcm}{{4.63}{162}}
\@writefile{toc}{\contentsline {paragraph}{Output\\}{162}}
\@writefile{toc}{\contentsline {section}{\numberline {4.3}The \textbf  {View} menu}{163}}
\newlabel{view_menu}{{4.3}{163}}
\@writefile{toc}{\contentsline {subsection}{\numberline {4.3.1}Plot}{163}}
\newlabel{plot}{{4.3.1}{163}}
\@writefile{lof}{\contentsline {figure}{\numberline {4.64}{\ignorespaces The plot dialog}}{164}}
\newlabel{fig:plot}{{4.64}{164}}
\@writefile{lof}{\contentsline {figure}{\numberline {4.65}{\ignorespaces The plot settings dialog}}{166}}
\newlabel{fig:plot_settings}{{4.65}{166}}
\@writefile{toc}{\contentsline {subsection}{\numberline {4.3.2}Animation}{166}}
\newlabel{animation}{{4.3.2}{166}}
\@writefile{lof}{\contentsline {figure}{\numberline {4.66}{\ignorespaces The export plot dialog}}{167}}
\newlabel{fig:export_plot}{{4.66}{167}}
\@writefile{lof}{\contentsline {figure}{\numberline {4.67}{\ignorespaces The trajectory animation dialog}}{167}}
\newlabel{fig:animation}{{4.67}{167}}
\@writefile{toc}{\contentsline {subsection}{\numberline {4.3.3}Effective mode}{168}}
\newlabel{effective_mode}{{4.3.3}{168}}
\@writefile{lof}{\contentsline {figure}{\numberline {4.68}{\ignorespaces The effective mode viewer dialog}}{168}}
\newlabel{fig:effective_mode_viewer}{{4.68}{168}}
\@writefile{toc}{\contentsline {section}{\numberline {4.4}The \textbf  {Help} menu}{169}}
\newlabel{help_menu}{{4.4}{169}}
\@writefile{toc}{\contentsline {subsection}{\numberline {4.4.1}Documentation}{169}}
\newlabel{documentation}{{4.4.1}{169}}
\@writefile{toc}{\contentsline {subsection}{\numberline {4.4.2}Mailing List}{170}}
\newlabel{mailing_list}{{4.4.2}{170}}
\@writefile{toc}{\contentsline {subsection}{\numberline {4.4.3}API}{170}}
\newlabel{api}{{4.4.3}{170}}
\@writefile{toc}{\contentsline {subsection}{\numberline {4.4.4}Analysis benchmark}{170}}
\newlabel{analysis_benchmark}{{4.4.4}{170}}
\@writefile{lof}{\contentsline {figure}{\numberline {4.69}{\ignorespaces The analysis benchmark dialog}}{171}}
\newlabel{fig:benchmark}{{4.69}{171}}
\@writefile{toc}{\contentsline {subsection}{\numberline {4.4.5}About nMOLDYN}{172}}
\newlabel{about_nmoldyn}{{4.4.5}{172}}
\@writefile{lof}{\contentsline {figure}{\numberline {4.70}{\ignorespaces The about dialog}}{172}}
\newlabel{fig:about_nmoldyn}{{4.70}{172}}
\@writefile{toc}{\contentsline {chapter}{\numberline {5}Using nMOLDYN from the command-line interface}{173}}
\@writefile{lof}{\addvspace {10\p@ }}
\@writefile{lot}{\addvspace {10\p@ }}
\newlabel{running_nmoldyn_from_the_command_line_interface}{{5}{173}}
\@writefile{toc}{\contentsline {section}{\numberline {5.1}\textit  {n}MOLDYN\ autostart files}{173}}
\newlabel{nmoldyn_autostart_files}{{5.1}{173}}
\@writefile{lof}{\contentsline {figure}{\numberline {5.1}{\ignorespaces Example of autostart file}}{175}}
\newlabel{fig:msd_autostart_file}{{5.1}{175}}
\@writefile{lot}{\contentsline {table}{\numberline {5.1}{\ignorespaces \textit  {n}MOLDYN\ analysis internal names}}{176}}
\newlabel{tab:nmoldyn_analysis_name}{{5.1}{176}}
\@writefile{toc}{\contentsline {section}{\numberline {5.2}\textit  {n}MOLDYN\ input files}{177}}
\newlabel{nmoldyn_input_files}{{5.2}{177}}
\@writefile{lof}{\contentsline {figure}{\numberline {5.2}{\ignorespaces Example of input file}}{178}}
\newlabel{fig:msd_input_file}{{5.2}{178}}
\bibcite{Rog}{1}
\bibcite{Schiller}{2}
\bibcite{Hinsen:2000}{3}
\bibcite{MMTK}{4}
\bibcite{NetCDF}{5}
\bibcite{Davies}{6}
\bibcite{Lovesey}{7}
\bibcite{Bee}{8}
\bibcite{Kneller:1994}{9}
\bibcite{Geiger:1989}{10}
\bibcite{Geiger:1990}{11}
\bibcite{Ahlrichs}{12}
\bibcite{Yip:1987}{13}
\bibcite{Smith:1992}{14}
\bibcite{Smith:1993}{15}
\bibcite{vanRossum}{16}
\bibcite{python}{17}
\bibcite{NumPy}{18}
\bibcite{Pyro}{19}
\bibcite{Scientific1}{20}
\bibcite{Scientific2}{21}
\bibcite{OpenSource}{22}
\bibcite{Pyrex}{23}
\bibcite{Tk}{24}
\@writefile{toc}{\contentsline {chapter}{References}{179}}
\bibcite{matplotlib}{25}
\bibcite{Amber}{26}
\bibcite{CHARMM}{27}
\bibcite{DL_POLY}{28}
\bibcite{MaterialsStudio}{29}
\bibcite{Discover}{30}
\bibcite{Forcite}{31}
\bibcite{NAMD}{32}
\bibcite{VMD}{33}
\bibcite{VASP}{34}
\bibcite{X-PLOR}{35}
\bibcite{ncdump}{36}
\bibcite{ncgen}{37}
\bibcite{Calligari}{38}
\bibcite{nMOLDYN1}{39}
\bibcite{nMOLDYN2}{40}
\bibcite{CeCILL}{41}
\bibcite{pywin32}{42}
\bibcite{UCAR}{43}
\bibcite{NetCDF_Softwares}{44}
\bibcite{PDB}{45}
\bibcite{ConfigParser}{46}
\bibcite{MMTK_TrajectorySet}{47}
\bibcite{Democritus}{48}
\bibcite{Rahman:1962}{49}
\bibcite{Yip:1980}{50}
\bibcite{Kneller:KFA}{51}
\bibcite{Abramowitz}{52}
\bibcite{Karplus}{53}
\bibcite{Berendsen}{54}
\bibcite{Kneller:1991}{55}
\bibcite{Altmann}{56}
\bibcite{Hinsen:2001}{57}
\bibcite{Papoulis:1991}{58}
\bibcite{Makhoul:1975}{59}
\bibcite{Burg}{60}
\bibcite{Makhoul:1977}{61}
\bibcite{Stone}{62}
\bibcite{Edmonds}{63}
\bibcite{Satchler}{64}
\bibcite{Rose}{65}
\bibcite{Tildesley}{66}
\bibcite{VanHove}{67}
\bibcite{Schofield}{68}
\bibcite{Salmon}{69}
\bibcite{Refield}{70}
\bibcite{Szabo:1982}{71}
\bibcite{Szabo:1982bis}{72}
\bibcite{Bruschweiler}{73}
\bibcite{Brigham}{74}
\bibcite{Papoulis:1984}{75}
\bibcite{Harris}{76}
\bibcite{CDL}{77}
\bibcite{TclTk}{78}
\citation{Brigham}
\@writefile{toc}{\contentsline {chapter}{\numberline {A}The FCA algorithm}{182}}
\@writefile{lof}{\addvspace {10\p@ }}
\@writefile{lot}{\addvspace {10\p@ }}
\newlabel{fca}{{A}{182}}
\newlabel{eq:dacf}{{A.2}{182}}
\newlabel{eq:a}{{A.4}{182}}
\newlabel{eq:b}{{A.5}{182}}
\newlabel{eq:s}{{A.7}{182}}
\citation{Brigham}
\citation{Papoulis:1984}
\citation{Papoulis:1984}
\citation{Harris}
\newlabel{eq:c-s}{{A.8}{183}}
\newlabel{eq:s_fft}{{A.9}{183}}
\newlabel{eq:gauss_window}{{A.13}{183}}
