\addvspace {10\p@ }
\addvspace {10\p@ }
\addvspace {10\p@ }
\addvspace {10\p@ }
\contentsline {table}{\numberline {4.1}{\ignorespaces Selection keywords available in \textit {n}MOLDYN}}{47}
\addvspace {10\p@ }
\contentsline {table}{\numberline {5.1}{\ignorespaces \textit {n}MOLDYN\ analysis internal names}}{176}
\addvspace {10\p@ }
