%!PS-Adobe-3.0 EPSF-3.0
%%Creator: GIMP PostScript file plugin V 1,17 by Peter Kirchgessner
%%Title: matplotlib_filesave.eps
%%CreationDate: Mon Sep 21 10:30:44 2009
%%DocumentData: Clean7Bit
%%LanguageLevel: 2
%%Pages: 1
%%BoundingBox: 14 14 33 33
%%EndComments
%%BeginProlog
% Use own dictionary to avoid conflicts
10 dict begin
%%EndProlog
%%Page: 1 1
% Translate for offset
14.173228346456694 14.173228346456694 translate
% Translate to begin of first scanline
0 17.997750281214849 translate
17.997750281214849 -17.997750281214849 scale
% Image geometry
24 24 8
% Transformation matrix
[ 24 0 0 24 0 0 ]
% Strings to hold RGB-samples per scanline
/rstr 24 string def
/gstr 24 string def
/bstr 24 string def
{currentfile /ASCII85Decode filter /RunLengthDecode filter rstr readstring pop}
{currentfile /ASCII85Decode filter /RunLengthDecode filter gstr readstring pop}
{currentfile /ASCII85Decode filter /RunLengthDecode filter bstr readstring pop}
true 3
%%BeginData:         1550 ASCII Bytes
colorimage
l2Q8~>
l2Q8~>
l2Q8~>
l2Q8~>
l2Q8~>
l2Q8~>
l2Q8~>
l2Q8~>
l2Q8~>
l2Q8~>
l2Q8~>
l2Q8~>
l2Q8~>
l2Q8~>
l2Q8~>
#62G'/pX:irhTRhs.KL'0Q6gfJ,~>
"TQtuE,Y`)#^q)IH[9sIDOUG%J,~>
"TR;DNEZ<K!^T(:r]^HhMlupVJ,~>
&H@AZH$m-1['?g9WMZFoO"'r*J,~>
&HAhSP^AmgR$EnuO,Jg$U0RQpJ,~>
&HBG&UN_?AIXZWiG][t;YBTjCJ,~>
&H@MS<-QC"G]@S7An,LA1+E)"J,~>
&HAqOHDB*@RuiVeL4kP0?!R7+J,~>
&HBM"O1!iuWhH&TR$O;(G^'#aJ,~>
&H@M]<I2[&D.-aT=B8iu(GGXbJ,~>
&HAqfMP\qQNe)V*GBS[`<Gq[5J,~>
&HBM9Tsrn3T9G@sN/3d[G)Q4sJ,~>
&H@Ma>CFN,=>DQ`/hL*k(GGXbJ,~>
&HAqiNi(@RG@=le?!V\u<Gq[5J,~>
&HBM<V7574MgBYnGBSk'G)Q4sJ,~>
&H@Mb?%'Z*\$<!0SX,@((GGXbJ,~>
&HAqjOJ^OPaMPTuYcFRA<Gq[5J,~>
&HBM=VRP:/ccX5A]!SW"G)Q4sJ,~>
&H@M_=ADdm9h%E32(g@"(GGXbJ,~>
&HAqgN/!4GKn4SpEbo>o<Gq[5J,~>
&HBM:URn0PSXGb*N/<48G)Q4sJ,~>
&H@MY:fLFn:J!o81Fsdj(GGXbJ,~>
&HAqbL5CeDKn+MlDJ*?Z<Gq[5J,~>
&HBM7StVjNSXGb)MM-J(G)Q4sJ,~>
&H@MR7nQEG7RB3p/gh_W(GGXbJ,~>
&HAq\IY!'#I<p$SBk(CJ<Gq[5J,~>
&HBM2R$sM4Q^!SiLOjhrG)Q4sJ,~>
&H@MH4[DAA:J4JU7RA15(GGXbJ,~>
&HAqTG'J:XART4\?<]s#<Gq[5J,~>
&HBM+OctufG]e=VF)PT4G)Q4sJ,~>
&H@M?1Gq%S0HI!]P`-h'(GGXbJ,~>
&HAqLDJsKi5:X.HVk6gd<Gq[5J,~>
&HBM$MMmCs<C=R4Yc)D^G)Q4sJ,~>
&H@M5.P*-70--XLN.iYr(GGXbJ,~>
&HAqDAS,ML4t<e8T9rPW<Gq[5J,~>
&HBLrJqS`[<'n.#WM49RG)Q4sJ,~>
&H?_i+!;]$/fg4;LO^lk(GGXbJ,~>
&HAD,>[:::4=[8&RZg]N<Gq[5J,~>
&HB(^I!fnK;aRaiUn)FIG)Q4sJ,~>
&HD5a()Ig_<`>$7JU/a]*b>-IJ,~>
&HDEM<E2Z"An.O(P`8R@>*\saJ,~>
&HDKjG'7Q7G]g'`SsO8:HE-iAJ,~>
s8NSu?tr;*84Z6@7Rg$cH1^t5J,~>
s8N>sPF?5tARo?N@fpS:V"a`cJ,~>
s8N>uWNLeuH?jf8GQWQ#[e]e"J,~>
l2Q8~>
l2Q8~>
l2Q8~>
l2Q8~>
l2Q8~>
l2Q8~>
l2Q8~>
l2Q8~>
l2Q8~>
l2Q8~>
l2Q8~>
l2Q8~>
%%EndData
showpage
%%Trailer
end
%%EOF
