%!PS-Adobe-3.0 EPSF-3.0
%%Creator: GIMP PostScript file plugin V 1,17 by Peter Kirchgessner
%%Title: matplotlib_home.eps
%%CreationDate: Mon Sep 21 10:31:32 2009
%%DocumentData: Clean7Bit
%%LanguageLevel: 2
%%Pages: 1
%%BoundingBox: 14 14 33 33
%%EndComments
%%BeginProlog
% Use own dictionary to avoid conflicts
10 dict begin
%%EndProlog
%%Page: 1 1
% Translate for offset
14.173228346456694 14.173228346456694 translate
% Translate to begin of first scanline
0 17.997750281214849 translate
17.997750281214849 -17.997750281214849 scale
% Image geometry
24 24 8
% Transformation matrix
[ 24 0 0 24 0 0 ]
% Strings to hold RGB-samples per scanline
/rstr 24 string def
/gstr 24 string def
/bstr 24 string def
{currentfile /ASCII85Decode filter /RunLengthDecode filter rstr readstring pop}
{currentfile /ASCII85Decode filter /RunLengthDecode filter gstr readstring pop}
{currentfile /ASCII85Decode filter /RunLengthDecode filter bstr readstring pop}
true 3
%%BeginData:         2020 ASCII Bytes
colorimage
l2Q8~>
l2Q8~>
l2Q8~>
pAY3]F6E;tJ,~>
pAY3L-f"IrJ,~>
pAY3N-/81oJ,~>
r;R(tX/hrol?T+PlM1C0~>
r;R(EH$O6+efZb*i;!>&~>
r;R(CD/3MYfd'!Cht[5%~>
r;R,*qtR/TGd4rbI-UP-J,~>
r;R+Uh9g8j+$;_F1uS30J,~>
r;R+SZ]A2;,#MK;1Z/$.J,~>
r;R/+qs^M.ZG!TOUjVJ(s*t~>
r;R.Vh5k624?bSU,rFQVs*t~>
r;R.TZR&Qp;HZjj4Yu!ls*t~>
r;R2,qqH1p^:(DLXJ:1+qu;0~>
r;R1Wh2N745W1;C,9eu"qu;0~>
r;R1UZS!.l>>e-]5W^dVqu;0~>
r;R5-jEIi=H&.H2R]N<4kPY@1~>
r;R4XYSoVf+"]B'+sS6fh#.2&~>
r;R4VL)Woj-T+(E3^>e`g\h)%~>
r;R8(Gd4bmV;1+QFe#P/I-U\1J,~>
r;R7H*^)Y-R,$`<1ERhb1uS?4J,~>
r;R7I*D]ZXQe^W;1H.Q]1Z/02J,~>
rVmGrF0N;hS](-dh8XE(XJ:1.rr7K~>
rVmG[)*U;/O2UYVh8(lk,9eu&rr7K~>
rVmG_*)]ucNl:PUh8(m-5W^dZrr7K~>
rr3\qG-AVkR(_)No]FcAC8.f*I-Ub3J,~>
rr3\V*'Hb7MnR^Ao]Fc<0I\4m1uSE6J,~>
rr3\Z+&ZGiMS7U@o]Fc<0L7re1Z/64J,~>
s8NhsG-etuOgWI6s8MHDd(3kbXJC7,s*t~>
s8NhX*'m4MKXK))s8MHDd'YDT,:,/$s*t~>
s8Nh\+')l*K=/u(s8MHDd'YAk5WpmWs*t~>
(]WfG[_lg=Xi8&WWL1BZfZLU6V6$)'s*t~>
(]Vo)6qf+`Xi7AlFC(?mfZLEJ/gDD\s*t~>
(]W&1=_01:Xi7>b@o/-BfZLEJ6pNONs*t~>
(]Srh^56j=^9kBGq=i<laj\k/I[b64s*t~>
(]Q0T8k!m3^79o1eB=7K]@5At3@GEWs*t~>
(]Q0h@RYFK^7/o:Q@;Ue]$o8t3'.hps*t~>
(]VaRM<AuSnZ)<[q=jRJS+P$um;^k[s*t~>
(]Ug77biNfnTrU=eB>b;D"Q&Pj!V;8s*t~>
(]Ug@7GEEfnSsu'R"&^MC%T`Nj!D>;s*t~>
s8NXWkPo_!s/Pnkq=jRQX7X`0r;V9~>
s8NWjh#Dr!s*<,He&oS>IItjar;V9~>
s8NWgg])o"s(IaqQ$m1;F7deXr;V9~>
r;R4UU&V.fq=s[UnuME/T)AV=~>
r;R4_U&TAce^;LT\pa4sW;Q[G~>
r;R4`U&SefR>uQ%969aOWVldH~>
r;R4UU&V.eq"OLSo;hK/T)AV=~>
r;R4_U&T>^d*9VH\:*tpW;Q[G~>
r;R4`U&S_ZNJ)=Y7s":JWVldH~>
r;R4UUAq7ep\+:Oo;hK/T)AV=~>
r;R4_UAoG[bf[o=[XIbnW;Q[G~>
r;R4`UAnePJU;066Z_kFWVldH~>
r;R4UUAq:fp@\(LnuMB.T)AV=~>
r;R4_UAoMZaMu'.[!hPlW;Q[G~>
r;R4`UAnqIF`:ee4`g5@WVldH~>
r;QkEUAq7mo`k'ZnuMB.T)AV=~>
r;R4ZUAoPW`5B="Z@2>jW;Q[G~>
r;R4[UAo%ABk1@=2feN9WVldH~>
r;Qk@UAq7moEOpXnZ29-T)AV=~>
r;R4VUAoPS^qRFhY^Q,hW;Q[G~>
r;R4XUAnt3?<L&i066[1WVldH~>
r;Qk@UAq7lo*+^SX7OW.r;V9~>
r;QkLUAoN<]*>aMXaTfdW;Q[G~>
r;R4XUAnq&;,0S?.<>%*WVldH~>
r;Qk?\c7E`Q2d'OUS@J9Rf*29~>
r;QkO\c58#<W?#$B6!Y!Vu6RF~>
r;QkR\c5"q4U*u/7;MVNWVldH~>
r;Qb4repi#q/675r;V9~>
r;QbTrhTUZq2PH$r;V9~>
r;QbYri#mcq3(f/r;V9~>
%%EndData
showpage
%%Trailer
end
%%EOF
