%!PS-Adobe-3.0 EPSF-3.0
%%Creator: GIMP PostScript file plugin V 1,17 by Peter Kirchgessner
%%Title: matplotlib_subplots.eps
%%CreationDate: Mon Sep 21 10:32:40 2009
%%DocumentData: Clean7Bit
%%LanguageLevel: 2
%%Pages: 1
%%BoundingBox: 14 14 39 39
%%EndComments
%%BeginProlog
% Use own dictionary to avoid conflicts
10 dict begin
%%EndProlog
%%Page: 1 1
% Translate for offset
14.173228346456694 14.173228346456694 translate
% Translate to begin of first scanline
0 23.999999999999993 translate
23.999999999999993 -23.999999999999993 scale
% Image geometry
24 24 8
% Transformation matrix
[ 24 0 0 24 0 0 ]
% Strings to hold RGB-samples per scanline
/rstr 24 string def
/gstr 24 string def
/bstr 24 string def
{currentfile /ASCII85Decode filter /RunLengthDecode filter rstr readstring pop}
{currentfile /ASCII85Decode filter /RunLengthDecode filter gstr readstring pop}
{currentfile /ASCII85Decode filter /RunLengthDecode filter bstr readstring pop}
true 3
%%BeginData:         2005 ASCII Bytes
colorimage
l2Q8~>
l2Q8~>
l2Q8~>
l2Q8~>
l2Q8~>
l2Q8~>
pAY2A9\fCBJ,~>
pAY2A9\fCBJ,~>
pAY2A9\fCBJ,~>
rr3%-/3EG'"&SLes*t~>
rr3%-/3Eb0!CLr)!!?'es8RT~>
rr3%-/3EG'"&SLes*t~>
rr3?Wo(;SGnYnWA=@[</m/P]?KeWQ,J,~>
rr3?Wo(;SGnYoXCgluaVm/P]?KeWQ,J,~>
rr3?Wo(;SGnYnWA=@[</m/P]?KeWQ,J,~>
rr3$\caWna%Q?FXH!`4Y]=Yr!`>8LRJ,~>
rr3$\caWna%R@k\g=0G_]=Yr!`>8LRJ,~>
rr3$\caWna%Q?FXH!`4Y]=Yr!`>8LRJ,~>
rr3$[c)(Di!''p"!A%p_J-4I)s8RT~>
rr3$[c)(Di!''p"!A%p_J-4I)s8RT~>
rr3$[c)(Di!''p"!A%p_J-4I)s8RT~>
rr3Zlb+N?D<a/sCC2\6@J!$MPli@(cJ,~>
rr3Zlb+OKMPaJ#8VQ-i+\AQVSli@(cJ,~>
rr3Zlb+PTTcdC7ng"YBBj65n(li@(cJ,~>
rr3ZkaIm3I>=UG*2`WuaI''Brli@(cJ,~>
rr3ZkaIn?QQuu5'<**4,U=@ZUli@(cJ,~>
rr3ZkaIoEUd@P,iD/O<4^@1Obli@(cJ,~>
rr3ZiRP6a*.3C/[.Ol,`,Zq3D=oeU&J,~>
rr3ZiRP7X,6Q[ou/M.Yf,\u"6=oeU&J,~>
rr3ZiRP8L(>TYR984XFG,^Aie=oeU&J,~>
rr3ZK0et:e!/.FbDf8[VR1$;]6ib1*J,~>
rr3ZK::`Z[!/.FbI=5.rR17kZYmJAKJ,~>
rr3ZK0euVT!/.FbWMrpuR1JmU6ib1*J,~>
s8NgQ$pIlJA,qUhC6b&kXJ,^'7rAc$XFL~>
s8NgQ7a94ETE'tOC9OgJXJ,^NB&SqYXFL~>
s8NgQ$pIlnec:]0C<b"1XJ,^f:MpV,XFL~>
s8N9g%8q@&B`RsY"ou5-O!-c-J,~>
s8N:%S^Q%TU]C4?"p!UplCkk0J,~>
s8N9g%8q@JfDt_s"p"BrO!-c-J,~>
s8N;A$q+S[D?0M4"ou=qM[j:QJ,~>
s8N;A(9u4RVuZYn"p!^okuqWQJ,~>
s8N;A$q+T(g&UsK"p"H`M[j:QJ,~>
rr3-D9JA5Y!;ZX!!5LQ_!;-;A~>
rr3-D9S#XD!;ZX!!9RF.!;-;A~>
rr3-D9JBH*!;ZX!!;\oK!;-;A~>
rr30Y[V]9-):/3[#L=7(Q)Xias*t~>
rr30Y[V^3#*7+N^#L=FTUoFFps*t~>
rr30Y[V^ua*ma``#L=LiX/Z1"s*t~>
rr30Y^S6+8Or4&r#8j,PiU6dHs*t~>
rr30Y^S7.2VB#I5#9CPFp$Vn\s*t~>
rr30Y^S7so[3#2F#9V4is6fsfs*t~>
rr33Z^S61<^r+1jaT'9b`l-g(!<<(L~>
rr3Zg^S746h;I;RjlYdklg4$3mf<CfJ,~>
rr3Zg^S8!ro(;VKp\=R]r;Q`rmf<CfJ,~>
rr3Zg^S6:B]1Xh40ethbaMu*Sn,WLgJ,~>
rr3Zg^S7:;gK-?p3BBUDmHs95n,WLgJ,~>
rr33Z^S8$unm=QZ4p"@$rr2p"n,WLgJ,~>
rr3BE^UWJ,s%?.7Rs73-rVluh!<<(L~>
rr3BE^UWJ,s&IP3nE4c"rVluh!<<(L~>
rr3BE^UWJ,s%?.7Rs73-rVluh!<<(L~>
rr3[/N6g53gSd)+?q#7ri8ESQiW0#YJ,~>
rr3[/N6g53gSe*&gQ?[:i8ESQiW0#YJ,~>
rr3[/N6g53gSd)+?q#7ri8ESQiW0#YJ,~>
rr3#G)YsF6!Vucu3'dNDJ,~>
rr3#G)Z'L83HP#s"#rRGs*t~>
rr3#G)YsF6!Vucu3'dNDJ,~>
pAY2A9^)6NJ,~>
pAY2A9^)6NJ,~>
pAY2A9^)6NJ,~>
l2Q8~>
l2Q8~>
l2Q8~>
%%EndData
showpage
%%Trailer
end
%%EOF
