%!PS-Adobe-3.0 EPSF-3.0
%%Creator: GIMP PostScript file plugin V 1,17 by Peter Kirchgessner
%%Title: matplotlib_move.eps
%%CreationDate: Mon Sep 21 10:50:36 2009
%%DocumentData: Clean7Bit
%%LanguageLevel: 2
%%Pages: 1
%%BoundingBox: 14 14 33 33
%%EndComments
%%BeginProlog
% Use own dictionary to avoid conflicts
10 dict begin
%%EndProlog
%%Page: 1 1
% Translate for offset
14.173228346456694 14.173228346456694 translate
% Translate to begin of first scanline
0 17.997750281214849 translate
17.997750281214849 -17.997750281214849 scale
% Image geometry
24 24 8
% Transformation matrix
[ 24 0 0 24 0 0 ]
% Strings to hold RGB-samples per scanline
/rstr 24 string def
/gstr 24 string def
/bstr 24 string def
{currentfile /ASCII85Decode filter /RunLengthDecode filter rstr readstring pop}
{currentfile /ASCII85Decode filter /RunLengthDecode filter gstr readstring pop}
{currentfile /ASCII85Decode filter /RunLengthDecode filter bstr readstring pop}
true 3
%%BeginData:         1346 ASCII Bytes
colorimage
l2Q8~>
l2Q8~>
l2Q8~>
p\t<lAG>ftJ,~>
p\t<mR/6OVJ,~>
p\t<nXo%hlJ,~>
p\t;K/8k1]J,~>
p\t;tF.W+*J,~>
p\t</O0\KZJ,~>
q#:K,?k+oop]#a~>
q#:KCQ!SUTp]#a~>
q#:KMWd^)[p]#a~>
q>UZ[EY],p6f%P;J,~>
q>UZdTjqD8J`un/J,~>
q>UZh["<aUS*g"NJ,~>
q>U[S*tf%q*%1XZs*t~>
q>U\CC11FVB5d_Ds*t~>
q>U\^LOai(L5c*,s*t~>
p\t:U%P7>RJ,~>
p\t;B??5c>J,~>
p\t;\IZF.%J,~>
p\t:Z%P7>RJ,~>
p\t;D??5c>J,~>
p\t;^IZF.%J,~>
p\t:e%P7>RJ,~>
p\t;L??5c>J,~>
p\t;dIZF.%J,~>
rr3#[,lIZD8e*EMrrFM'rVqB~>
rr3#dD>aD8L0eourrI*&rVqB~>
rr3#hMZ!JUSpl^trrJ)GrVqB~>
s8N.n-kuT("=4R$G_#dK!YmMerr7K~>
s8N/8DdrX@"DqI[V5jNu!b-Ajrr7K~>
s8N/EN.Lo9"H%\b\%DXS!eQT]rr7K~>
!rGt7q$mB>q$mKJ@JBeP~>
!rS'iq-F&2q-F/9QMUW3~>
!r\sJq0i<qq0iF#X8DpI~>
!c;6]q$mB>q$mK>;JuMb~>
!hPWgq-F&2q-F/3Mk9s!~>
!jS_Xq0i<qq0iErUU'oM~>
"TQAb4qRX+"<7mlG]<Xr"V`J$_uKae~>
"TR)NIUN)C"DD.UV4[aV"_)J@fDkl$~>
"TRAhR",%;"GVA[\$H":"bD];huE_,~>
rr3#:0DthO3Y!_=rrFgcrVqB~>
rr3#NFSu.?HsUjkrrI8irVqB~>
rr3#VOSo+[Q@=klrrJ8:rVqB~>
p\t:U%P7>RJ,~>
p\t;B??5c>J,~>
p\t;\IZF.%J,~>
p\t:U%P7>RJ,~>
p\t;B??5c>J,~>
p\t;\IZF.%J,~>
p\t:U%P7>RJ,~>
p\t;B??5c>J,~>
p\t;\IZF.%J,~>
q>U[R*YAkm'drnSs*t~>
q>U\BBjb7S@rM;@s*t~>
q>U\^LOai'K8fd)s*t~>
q>UKVA,Zr=9%j">J,~>
q>UK_Qi::lL?841J,~>
q>UKcXT!YLT'H+NJ,~>
q#:K,:C]+^p]#a~>
q#:KCMI(GIp]#a~>
q#:KMTmi-Rp]#a~>
p\t;G.rP(\J,~>
p\t;qELun(J,~>
p\t<-NjABYJ,~>
p\t<l@e]TrJ,~>
p\t<mQMU=TJ,~>
p\t<nX8DVjJ,~>
l2Q8~>
l2Q8~>
l2Q8~>
%%EndData
showpage
%%Trailer
end
%%EOF
